Lab_1/verilog/3_Johnson/Johnson.vcd
$date
	Mon Apr 04 12:29:50 2016
$end
$version
	Icarus Verilog
$end
$timescale
	1s
$end
$scope module Johnson_tb $end
$scope module john $end
$var wire 1 ! clk $end
$var wire 1 " rst $end
$var reg 1 # q0 $end
$var reg 1 $ q1 $end
$var reg 1 % q2 $end
$var reg 1 & q3 $end
$upscope $end
$upscope $end
$enddefinitions $end
#0
$dumpvars
x&
x%
x$
x#
1"
0!
$end
#1
0&
0%
0$
0#
0"
#2
1"
#4
1#
1!
#5
0!
#6
1$
1!
#7
0!
#8
1%
1!
#9
0!
#10
1&
1!
#11
0!
#12
0#
1!
#13
0!
#14
0$
1!
#15
0!
#16
0%
1!
#17
0!
#18
0&
1!
#19
0!
#20
1#
1!
#21
0!
#22
1$
1!
#23
0!
#24
1%
1!
#25
0!
#26
1&
1!
#27
0!
#28
0#
1!
#29
0!
#30
0$
1!
#31
0!
#32
0%
1!
#33
0!
#34
0&
1!
#35
0"
0!
#36
1"
#38
1#
1!
#39
0!
#40
1$
1!
#41
0!
#42
1%
1!
#43
0!
#44
1&
1!
