Lab3/verilog/alu_gate/subtract_gate/subtract_gate.vcd
$date
	Tue Apr 26 16:36:03 2016
$end
$version
	Icarus Verilog
$end
$timescale
	1s
$end
$scope module subtract_testbench $end
$scope module subtraction $end
$var wire 32 ! minuend [31:0] $end
$var wire 32 " subtrahend [31:0] $end
$var wire 32 # difference [31:0] $end
$var wire 32 $ comp_subtrahend [31:0] $end
$var wire 1 % Z $end
$var wire 1 & V $end
$var wire 1 ' N $end
$var wire 1 ( C $end
$upscope $end
$upscope $end
$enddefinitions $end
#0
$dumpvars
x(
x'
x&
x%
bx $
bx #
bx "
bx !
$end
#1
1(
0'
1%
0&
b0 #
b11111111111111111111111111111111 $
b0 "
b0 !
#2
0(
1'
0%
b11111111111111111111111111000111 $
b11111111111111111111111111011010 #
b111000 "
b10010 !
#3
0(
1&
0'
b10000000000000000111011001010100 $
b1110110010101010 #
b1111111111111111000100110101011 "
b10000000000000000111011001010101 !
#4
1(
0'
0&
b11111111111111111111111111111101 $
b1111111111111111111111111111101 #
b10 "
b1111111111111111111111111111111 !
#5
0'
0(
1&
b11111111111111111111111111110000 $
b1111111111111111111111111110010 #
b1111 "
b10000000000000000000000000000001 !
#6
1%
1(
0'
0&
b0 #
b11111111111111111111111111111111 $
b0 !
b0 "
#7
1'
0%
1(
0&
b11111111111111111111111111111111 #
b11111111111111111111111111111111 !
#8
b11111111111111111111111111111110 #
b11111111111111111111111111111110 !
#9
b11111111111111111111111111111101 #
b11111111111111111111111111111101 !
#10
b11111111111111111111111111111100 #
b11111111111111111111111111111100 !
#11
b11111111111111111111111111111011 #
b11111111111111111111111111111011 !
#12
b11111111111111111111111111111010 #
b11111111111111111111111111111010 !
#13
b11111111111111111111111111111001 #
b11111111111111111111111111111001 !
#14
b11111111111111111111111111111000 #
b11111111111111111111111111111000 !
#15
b11111111111111111111111111110111 #
b11111111111111111111111111110111 !
#16
b11111111111111111111111111110110 #
b11111111111111111111111111110110 !
#17
b11111111111111111111111111110101 #
b11111111111111111111111111110101 !
#18
b11111111111111111111111111110100 #
b11111111111111111111111111110100 !
#19
b11111111111111111111111111110011 #
b11111111111111111111111111110011 !
#20
b11111111111111111111111111110010 #
b11111111111111111111111111110010 !
#21
b11111111111111111111111111110001 #
b11111111111111111111111111110001 !
#22
0(
0%
1'
b11111111111111111111111111111111 #
b11111111111111111111111111111110 $
b0 !
b1 "
#23
1(
0&
1'
b11111111111111111111111111111110 #
b11111111111111111111111111111111 !
#24
b11111111111111111111111111111101 #
b11111111111111111111111111111110 !
#25
b11111111111111111111111111111100 #
b11111111111111111111111111111101 !
#26
b11111111111111111111111111111011 #
b11111111111111111111111111111100 !
#27
b11111111111111111111111111111010 #
b11111111111111111111111111111011 !
#28
b11111111111111111111111111111001 #
b11111111111111111111111111111010 !
#29
b11111111111111111111111111111000 #
b11111111111111111111111111111001 !
#30
b11111111111111111111111111110111 #
b11111111111111111111111111111000 !
#31
b11111111111111111111111111110110 #
b11111111111111111111111111110111 !
#32
b11111111111111111111111111110101 #
b11111111111111111111111111110110 !
#33
b11111111111111111111111111110100 #
b11111111111111111111111111110101 !
#34
b11111111111111111111111111110011 #
b11111111111111111111111111110100 !
#35
b11111111111111111111111111110010 #
b11111111111111111111111111110011 !
#36
b11111111111111111111111111110001 #
b11111111111111111111111111110010 !
#37
b11111111111111111111111111110000 #
b11111111111111111111111111110001 !
#38
0(
0%
1'
b11111111111111111111111111111110 #
b11111111111111111111111111111101 $
b0 !
b10 "
#39
1(
0&
1'
b11111111111111111111111111111101 #
b11111111111111111111111111111111 !
#40
b11111111111111111111111111111100 #
b11111111111111111111111111111110 !
#41
b11111111111111111111111111111011 #
b11111111111111111111111111111101 !
#42
b11111111111111111111111111111010 #
b11111111111111111111111111111100 !
#43
b11111111111111111111111111111001 #
b11111111111111111111111111111011 !
#44
b11111111111111111111111111111000 #
b11111111111111111111111111111010 !
#45
b11111111111111111111111111110111 #
b11111111111111111111111111111001 !
#46
b11111111111111111111111111110110 #
b11111111111111111111111111111000 !
#47
b11111111111111111111111111110101 #
b11111111111111111111111111110111 !
#48
b11111111111111111111111111110100 #
b11111111111111111111111111110110 !
#49
b11111111111111111111111111110011 #
b11111111111111111111111111110101 !
#50
b11111111111111111111111111110010 #
b11111111111111111111111111110100 !
#51
b11111111111111111111111111110001 #
b11111111111111111111111111110011 !
#52
b11111111111111111111111111110000 #
b11111111111111111111111111110010 !
#53
b11111111111111111111111111101111 #
b11111111111111111111111111110001 !
#54
0(
1'
b11111111111111111111111111111101 #
b11111111111111111111111111111100 $
b0 !
b11 "
#55
1(
0&
1'
b11111111111111111111111111111100 #
b11111111111111111111111111111111 !
#56
b11111111111111111111111111111011 #
b11111111111111111111111111111110 !
#57
b11111111111111111111111111111010 #
b11111111111111111111111111111101 !
#58
b11111111111111111111111111111001 #
b11111111111111111111111111111100 !
#59
b11111111111111111111111111111000 #
b11111111111111111111111111111011 !
#60
b11111111111111111111111111110111 #
b11111111111111111111111111111010 !
#61
b11111111111111111111111111110110 #
b11111111111111111111111111111001 !
#62
b11111111111111111111111111110101 #
b11111111111111111111111111111000 !
#63
b11111111111111111111111111110100 #
b11111111111111111111111111110111 !
#64
b11111111111111111111111111110011 #
b11111111111111111111111111110110 !
#65
b11111111111111111111111111110010 #
b11111111111111111111111111110101 !
#66
b11111111111111111111111111110001 #
b11111111111111111111111111110100 !
#67
b11111111111111111111111111110000 #
b11111111111111111111111111110011 !
#68
b11111111111111111111111111101111 #
b11111111111111111111111111110010 !
#69
b11111111111111111111111111101110 #
b11111111111111111111111111110001 !
#70
0(
1'
b11111111111111111111111111111100 #
b11111111111111111111111111111011 $
b0 !
b100 "
#71
1(
0&
1'
b11111111111111111111111111111011 #
b11111111111111111111111111111111 !
#72
b11111111111111111111111111111010 #
b11111111111111111111111111111110 !
#73
b11111111111111111111111111111001 #
b11111111111111111111111111111101 !
#74
b11111111111111111111111111111000 #
b11111111111111111111111111111100 !
#75
b11111111111111111111111111110111 #
b11111111111111111111111111111011 !
#76
b11111111111111111111111111110110 #
b11111111111111111111111111111010 !
#77
b11111111111111111111111111110101 #
b11111111111111111111111111111001 !
#78
b11111111111111111111111111110100 #
b11111111111111111111111111111000 !
#79
b11111111111111111111111111110011 #
b11111111111111111111111111110111 !
#80
b11111111111111111111111111110010 #
b11111111111111111111111111110110 !
#81
b11111111111111111111111111110001 #
b11111111111111111111111111110101 !
#82
b11111111111111111111111111110000 #
b11111111111111111111111111110100 !
#83
b11111111111111111111111111101111 #
b11111111111111111111111111110011 !
#84
b11111111111111111111111111101110 #
b11111111111111111111111111110010 !
#85
b11111111111111111111111111101101 #
b11111111111111111111111111110001 !
#86
0(
1'
b11111111111111111111111111111011 #
b11111111111111111111111111111010 $
b0 !
b101 "
#87
1(
0&
1'
b11111111111111111111111111111010 #
b11111111111111111111111111111111 !
#88
b11111111111111111111111111111001 #
b11111111111111111111111111111110 !
#89
b11111111111111111111111111111000 #
b11111111111111111111111111111101 !
#90
b11111111111111111111111111110111 #
b11111111111111111111111111111100 !
#91
b11111111111111111111111111110110 #
b11111111111111111111111111111011 !
#92
b11111111111111111111111111110101 #
b11111111111111111111111111111010 !
#93
b11111111111111111111111111110100 #
b11111111111111111111111111111001 !
#94
b11111111111111111111111111110011 #
b11111111111111111111111111111000 !
#95
b11111111111111111111111111110010 #
b11111111111111111111111111110111 !
#96
b11111111111111111111111111110001 #
b11111111111111111111111111110110 !
#97
b11111111111111111111111111110000 #
b11111111111111111111111111110101 !
#98
b11111111111111111111111111101111 #
b11111111111111111111111111110100 !
#99
b11111111111111111111111111101110 #
b11111111111111111111111111110011 !
#100
b11111111111111111111111111101101 #
b11111111111111111111111111110010 !
#101
b11111111111111111111111111101100 #
b11111111111111111111111111110001 !
#102
0(
1'
b11111111111111111111111111111010 #
b11111111111111111111111111111001 $
b0 !
b110 "
#103
1(
0&
1'
b11111111111111111111111111111001 #
b11111111111111111111111111111111 !
#104
b11111111111111111111111111111000 #
b11111111111111111111111111111110 !
#105
b11111111111111111111111111110111 #
b11111111111111111111111111111101 !
#106
b11111111111111111111111111110110 #
b11111111111111111111111111111100 !
#107
b11111111111111111111111111110101 #
b11111111111111111111111111111011 !
#108
b11111111111111111111111111110100 #
b11111111111111111111111111111010 !
#109
b11111111111111111111111111110011 #
b11111111111111111111111111111001 !
#110
b11111111111111111111111111110010 #
b11111111111111111111111111111000 !
#111
b11111111111111111111111111110001 #
b11111111111111111111111111110111 !
#112
b11111111111111111111111111110000 #
b11111111111111111111111111110110 !
#113
b11111111111111111111111111101111 #
b11111111111111111111111111110101 !
#114
b11111111111111111111111111101110 #
b11111111111111111111111111110100 !
#115
b11111111111111111111111111101101 #
b11111111111111111111111111110011 !
#116
b11111111111111111111111111101100 #
b11111111111111111111111111110010 !
#117
b11111111111111111111111111101011 #
b11111111111111111111111111110001 !
#118
0(
1'
b11111111111111111111111111111001 #
b11111111111111111111111111111000 $
b0 !
b111 "
#119
1(
0&
1'
b11111111111111111111111111111000 #
b11111111111111111111111111111111 !
#120
b11111111111111111111111111110111 #
b11111111111111111111111111111110 !
#121
b11111111111111111111111111110110 #
b11111111111111111111111111111101 !
#122
b11111111111111111111111111110101 #
b11111111111111111111111111111100 !
#123
b11111111111111111111111111110100 #
b11111111111111111111111111111011 !
#124
b11111111111111111111111111110011 #
b11111111111111111111111111111010 !
#125
b11111111111111111111111111110010 #
b11111111111111111111111111111001 !
#126
b11111111111111111111111111110001 #
b11111111111111111111111111111000 !
#127
b11111111111111111111111111110000 #
b11111111111111111111111111110111 !
#128
b11111111111111111111111111101111 #
b11111111111111111111111111110110 !
#129
b11111111111111111111111111101110 #
b11111111111111111111111111110101 !
#130
b11111111111111111111111111101101 #
b11111111111111111111111111110100 !
#131
b11111111111111111111111111101100 #
b11111111111111111111111111110011 !
#132
b11111111111111111111111111101011 #
b11111111111111111111111111110010 !
#133
b11111111111111111111111111101010 #
b11111111111111111111111111110001 !
#134
0(
1'
b11111111111111111111111111111000 #
b11111111111111111111111111110111 $
b0 !
b1000 "
#135
1(
0&
1'
b11111111111111111111111111110111 #
b11111111111111111111111111111111 !
#136
b11111111111111111111111111110110 #
b11111111111111111111111111111110 !
#137
b11111111111111111111111111110101 #
b11111111111111111111111111111101 !
#138
b11111111111111111111111111110100 #
b11111111111111111111111111111100 !
#139
b11111111111111111111111111110011 #
b11111111111111111111111111111011 !
#140
b11111111111111111111111111110010 #
b11111111111111111111111111111010 !
#141
b11111111111111111111111111110001 #
b11111111111111111111111111111001 !
#142
b11111111111111111111111111110000 #
b11111111111111111111111111111000 !
#143
b11111111111111111111111111101111 #
b11111111111111111111111111110111 !
#144
b11111111111111111111111111101110 #
b11111111111111111111111111110110 !
#145
b11111111111111111111111111101101 #
b11111111111111111111111111110101 !
#146
b11111111111111111111111111101100 #
b11111111111111111111111111110100 !
#147
b11111111111111111111111111101011 #
b11111111111111111111111111110011 !
#148
b11111111111111111111111111101010 #
b11111111111111111111111111110010 !
#149
b11111111111111111111111111101001 #
b11111111111111111111111111110001 !
#150
0(
1'
b11111111111111111111111111110111 #
b11111111111111111111111111110110 $
b0 !
b1001 "
#151
1(
0&
1'
b11111111111111111111111111110110 #
b11111111111111111111111111111111 !
#152
b11111111111111111111111111110101 #
b11111111111111111111111111111110 !
#153
b11111111111111111111111111110100 #
b11111111111111111111111111111101 !
#154
b11111111111111111111111111110011 #
b11111111111111111111111111111100 !
#155
b11111111111111111111111111110010 #
b11111111111111111111111111111011 !
#156
b11111111111111111111111111110001 #
b11111111111111111111111111111010 !
#157
b11111111111111111111111111110000 #
b11111111111111111111111111111001 !
#158
b11111111111111111111111111101111 #
b11111111111111111111111111111000 !
#159
b11111111111111111111111111101110 #
b11111111111111111111111111110111 !
#160
b11111111111111111111111111101101 #
b11111111111111111111111111110110 !
#161
b11111111111111111111111111101100 #
b11111111111111111111111111110101 !
#162
b11111111111111111111111111101011 #
b11111111111111111111111111110100 !
#163
b11111111111111111111111111101010 #
b11111111111111111111111111110011 !
#164
b11111111111111111111111111101001 #
b11111111111111111111111111110010 !
#165
b11111111111111111111111111101000 #
b11111111111111111111111111110001 !
#166
0(
1'
b11111111111111111111111111110110 #
b11111111111111111111111111110101 $
b0 !
b1010 "
#167
1(
0&
1'
b11111111111111111111111111110101 #
b11111111111111111111111111111111 !
#168
b11111111111111111111111111110100 #
b11111111111111111111111111111110 !
#169
b11111111111111111111111111110011 #
b11111111111111111111111111111101 !
#170
b11111111111111111111111111110010 #
b11111111111111111111111111111100 !
#171
b11111111111111111111111111110001 #
b11111111111111111111111111111011 !
#172
b11111111111111111111111111110000 #
b11111111111111111111111111111010 !
#173
b11111111111111111111111111101111 #
b11111111111111111111111111111001 !
#174
b11111111111111111111111111101110 #
b11111111111111111111111111111000 !
#175
b11111111111111111111111111101101 #
b11111111111111111111111111110111 !
#176
b11111111111111111111111111101100 #
b11111111111111111111111111110110 !
#177
b11111111111111111111111111101011 #
b11111111111111111111111111110101 !
#178
b11111111111111111111111111101010 #
b11111111111111111111111111110100 !
#179
b11111111111111111111111111101001 #
b11111111111111111111111111110011 !
#180
b11111111111111111111111111101000 #
b11111111111111111111111111110010 !
#181
b11111111111111111111111111100111 #
b11111111111111111111111111110001 !
#182
0(
1'
b11111111111111111111111111110101 #
b11111111111111111111111111110100 $
b0 !
b1011 "
#183
1(
0&
1'
b11111111111111111111111111110100 #
b11111111111111111111111111111111 !
#184
b11111111111111111111111111110011 #
b11111111111111111111111111111110 !
#185
b11111111111111111111111111110010 #
b11111111111111111111111111111101 !
#186
b11111111111111111111111111110001 #
b11111111111111111111111111111100 !
#187
b11111111111111111111111111110000 #
b11111111111111111111111111111011 !
#188
b11111111111111111111111111101111 #
b11111111111111111111111111111010 !
#189
b11111111111111111111111111101110 #
b11111111111111111111111111111001 !
#190
b11111111111111111111111111101101 #
b11111111111111111111111111111000 !
#191
b11111111111111111111111111101100 #
b11111111111111111111111111110111 !
#192
b11111111111111111111111111101011 #
b11111111111111111111111111110110 !
#193
b11111111111111111111111111101010 #
b11111111111111111111111111110101 !
#194
b11111111111111111111111111101001 #
b11111111111111111111111111110100 !
#195
b11111111111111111111111111101000 #
b11111111111111111111111111110011 !
#196
b11111111111111111111111111100111 #
b11111111111111111111111111110010 !
#197
b11111111111111111111111111100110 #
b11111111111111111111111111110001 !
#198
0(
1'
b11111111111111111111111111110100 #
b11111111111111111111111111110011 $
b0 !
b1100 "
#199
1(
0&
1'
b11111111111111111111111111110011 #
b11111111111111111111111111111111 !
#200
b11111111111111111111111111110010 #
b11111111111111111111111111111110 !
#201
b11111111111111111111111111110001 #
b11111111111111111111111111111101 !
#202
b11111111111111111111111111110000 #
b11111111111111111111111111111100 !
#203
b11111111111111111111111111101111 #
b11111111111111111111111111111011 !
#204
b11111111111111111111111111101110 #
b11111111111111111111111111111010 !
#205
b11111111111111111111111111101101 #
b11111111111111111111111111111001 !
#206
b11111111111111111111111111101100 #
b11111111111111111111111111111000 !
#207
b11111111111111111111111111101011 #
b11111111111111111111111111110111 !
#208
b11111111111111111111111111101010 #
b11111111111111111111111111110110 !
#209
b11111111111111111111111111101001 #
b11111111111111111111111111110101 !
#210
b11111111111111111111111111101000 #
b11111111111111111111111111110100 !
#211
b11111111111111111111111111100111 #
b11111111111111111111111111110011 !
#212
b11111111111111111111111111100110 #
b11111111111111111111111111110010 !
#213
b11111111111111111111111111100101 #
b11111111111111111111111111110001 !
#214
0(
1'
b11111111111111111111111111110011 #
b11111111111111111111111111110010 $
b0 !
b1101 "
#215
1(
0&
1'
b11111111111111111111111111110010 #
b11111111111111111111111111111111 !
#216
b11111111111111111111111111110001 #
b11111111111111111111111111111110 !
#217
b11111111111111111111111111110000 #
b11111111111111111111111111111101 !
#218
b11111111111111111111111111101111 #
b11111111111111111111111111111100 !
#219
b11111111111111111111111111101110 #
b11111111111111111111111111111011 !
#220
b11111111111111111111111111101101 #
b11111111111111111111111111111010 !
#221
b11111111111111111111111111101100 #
b11111111111111111111111111111001 !
#222
b11111111111111111111111111101011 #
b11111111111111111111111111111000 !
#223
b11111111111111111111111111101010 #
b11111111111111111111111111110111 !
#224
b11111111111111111111111111101001 #
b11111111111111111111111111110110 !
#225
b11111111111111111111111111101000 #
b11111111111111111111111111110101 !
#226
b11111111111111111111111111100111 #
b11111111111111111111111111110100 !
#227
b11111111111111111111111111100110 #
b11111111111111111111111111110011 !
#228
b11111111111111111111111111100101 #
b11111111111111111111111111110010 !
#229
b11111111111111111111111111100100 #
b11111111111111111111111111110001 !
#230
0(
1'
b11111111111111111111111111110010 #
b11111111111111111111111111110001 $
b0 !
b1110 "
#231
1(
0&
1'
b11111111111111111111111111110001 #
b11111111111111111111111111111111 !
#232
b11111111111111111111111111110000 #
b11111111111111111111111111111110 !
#233
b11111111111111111111111111101111 #
b11111111111111111111111111111101 !
#234
b11111111111111111111111111101110 #
b11111111111111111111111111111100 !
#235
b11111111111111111111111111101101 #
b11111111111111111111111111111011 !
#236
b11111111111111111111111111101100 #
b11111111111111111111111111111010 !
#237
b11111111111111111111111111101011 #
b11111111111111111111111111111001 !
#238
b11111111111111111111111111101010 #
b11111111111111111111111111111000 !
#239
b11111111111111111111111111101001 #
b11111111111111111111111111110111 !
#240
b11111111111111111111111111101000 #
b11111111111111111111111111110110 !
#241
b11111111111111111111111111100111 #
b11111111111111111111111111110101 !
#242
b11111111111111111111111111100110 #
b11111111111111111111111111110100 !
#243
b11111111111111111111111111100101 #
b11111111111111111111111111110011 !
#244
b11111111111111111111111111100100 #
b11111111111111111111111111110010 !
#245
b11111111111111111111111111100011 #
b11111111111111111111111111110001 !
#246
0(
1'
b11111111111111111111111111110001 #
b11111111111111111111111111110000 $
b0 !
b1111 "
#247
1(
0&
1'
b11111111111111111111111111110000 #
b11111111111111111111111111111111 !
#248
b11111111111111111111111111101111 #
b11111111111111111111111111111110 !
#249
b11111111111111111111111111101110 #
b11111111111111111111111111111101 !
#250
b11111111111111111111111111101101 #
b11111111111111111111111111111100 !
#251
b11111111111111111111111111101100 #
b11111111111111111111111111111011 !
#252
b11111111111111111111111111101011 #
b11111111111111111111111111111010 !
#253
b11111111111111111111111111101010 #
b11111111111111111111111111111001 !
#254
b11111111111111111111111111101001 #
b11111111111111111111111111111000 !
#255
b11111111111111111111111111101000 #
b11111111111111111111111111110111 !
#256
b11111111111111111111111111100111 #
b11111111111111111111111111110110 !
#257
b11111111111111111111111111100110 #
b11111111111111111111111111110101 !
#258
b11111111111111111111111111100101 #
b11111111111111111111111111110100 !
#259
b11111111111111111111111111100100 #
b11111111111111111111111111110011 !
#260
b11111111111111111111111111100011 #
b11111111111111111111111111110010 !
#261
b11111111111111111111111111100010 #
b11111111111111111111111111110001 !
