Lab3/verilog/file_register/decoder_5bit/decoder_5bit.vcd
$date
	Thu Apr 14 21:20:22 2016
$end
$version
	Icarus Verilog
$end
$timescale
	1s
$end
$scope module decoder_5bit_testbench $end
$scope module decoder $end
$var wire 32 ! selection [31:0] $end
$var wire 32 " mux4 [31:0] $end
$var wire 32 # mux3 [31:0] $end
$var wire 32 $ mux2 [31:0] $end
$var wire 32 % mux1 [31:0] $end
$var wire 5 & code [4:0] $end
$upscope $end
$upscope $end
$enddefinitions $end
#0
$dumpvars
b0 &
b1 %
b1 $
b1 #
b1 "
b1 !
$end
#1
b10 !
b10 "
b10 #
b10 $
b10 %
b1 &
#2
b100 !
b100 "
b100 #
b100 $
b1 %
b10 &
#3
b1000 !
b1000 "
b1000 #
b1000 $
b10 %
b11 &
#4
b10000 !
b10000 "
b10000 #
b1 $
b1 %
b100 &
#5
b100000 !
b100000 "
b100000 #
b10 $
b10 %
b101 &
#6
b1000000 !
b1000000 "
b1000000 #
b100 $
b1 %
b110 &
#7
b10000000 !
b10000000 "
b10000000 #
b1000 $
b10 %
b111 &
#8
b100000000 !
b100000000 "
b1 #
b1 $
b1 %
b1000 &
#9
b1000000000 !
b1000000000 "
b10 #
b10 $
b10 %
b1001 &
#10
b10000000000 !
b10000000000 "
b100 #
b100 $
b1 %
b1010 &
#11
b100000000000 !
b100000000000 "
b1000 #
b1000 $
b10 %
b1011 &
#12
b1000000000000 !
b1000000000000 "
b10000 #
b1 $
b1 %
b1100 &
#13
b10000000000000 !
b10000000000000 "
b100000 #
b10 $
b10 %
b1101 &
#14
b100000000000000 !
b100000000000000 "
b1000000 #
b100 $
b1 %
b1110 &
#15
b1000000000000000 !
b1000000000000000 "
b10000000 #
b1000 $
b10 %
b1111 &
#16
b10000000000000000 !
b1 "
b1 #
b1 $
b1 %
b10000 &
#17
b100000000000000000 !
b10 "
b10 #
b10 $
b10 %
b10001 &
#18
b1000000000000000000 !
b100 "
b100 #
b100 $
b1 %
b10010 &
#19
b10000000000000000000 !
b1000 "
b1000 #
b1000 $
b10 %
b10011 &
#20
b100000000000000000000 !
b10000 "
b10000 #
b1 $
b1 %
b10100 &
#21
b1000000000000000000000 !
b100000 "
b100000 #
b10 $
b10 %
b10101 &
#22
b10000000000000000000000 !
b1000000 "
b1000000 #
b100 $
b1 %
b10110 &
#23
b100000000000000000000000 !
b10000000 "
b10000000 #
b1000 $
b10 %
b10111 &
#24
b1000000000000000000000000 !
b100000000 "
b1 #
b1 $
b1 %
b11000 &
#25
b10000000000000000000000000 !
b1000000000 "
b10 #
b10 $
b10 %
b11001 &
#26
b100000000000000000000000000 !
b10000000000 "
b100 #
b100 $
b1 %
b11010 &
#27
b1000000000000000000000000000 !
b100000000000 "
b1000 #
b1000 $
b10 %
b11011 &
#28
b10000000000000000000000000000 !
b1000000000000 "
b10000 #
b1 $
b1 %
b11100 &
#29
b100000000000000000000000000000 !
b10000000000000 "
b100000 #
b10 $
b10 %
b11101 &
#30
b1000000000000000000000000000000 !
b100000000000000 "
b1000000 #
b100 $
b1 %
b11110 &
#31
b10000000000000000000000000000000 !
b1000000000000000 "
b10000000 #
b1000 $
b10 %
b11111 &
#32
b1 !
b1 "
b1 #
b1 $
b1 %
b0 &
