Lab3/verilog/alu_dataflow/alu_test_out.vcd
$date
	Tue May 03 17:27:40 2016
$end
$version
	Icarus Verilog
$end
$timescale
	1s
$end
$scope module alu_dataflow_tb $end
$scope module alu $end
$var wire 1 ! C $end
$var wire 1 " N $end
$var wire 1 # V $end
$var wire 1 $ Z $end
$var wire 1 % add_C $end
$var wire 1 & add_N $end
$var wire 1 ' add_V $end
$var wire 32 ( and_result [31:0] $end
$var wire 3 ) control [2:0] $end
$var wire 32 * difference [31:0] $end
$var wire 32 + operand0 [31:0] $end
$var wire 32 , operand1 [31:0] $end
$var wire 32 - or_result [31:0] $end
$var wire 32 . result [31:0] $end
$var wire 32 / sll_result [31:0] $end
$var wire 32 0 slt_result [31:0] $end
$var wire 1 1 sub_C $end
$var wire 1 2 sub_N $end
$var wire 1 3 sub_V $end
$var wire 32 4 sum [31:0] $end
$var wire 32 5 xor_result [31:0] $end
$scope module adder_module $end
$var wire 1 % C $end
$var wire 1 6 Cin $end
$var wire 1 & N $end
$var wire 1 ' V $end
$var wire 1 7 Z $end
$var wire 32 8 addend0 [31:0] $end
$var wire 32 9 addend1 [31:0] $end
$var wire 32 : and_addend_pairs [31:0] $end
$var wire 32 ; carry [31:0] $end
$var wire 32 < carry_propogate [31:0] $end
$var wire 1 = msb_addend_same $end
$var wire 1 > msb_sum_diff $end
$var wire 1 ? not_overflow $end
$var wire 31 @ pre_zero [30:0] $end
$var wire 32 A prop_carry [31:0] $end
$var wire 32 B sum [31:0] $end
$upscope $end
$scope module subtract_module $end
$var wire 1 1 C $end
$var wire 1 2 N $end
$var wire 1 3 V $end
$var wire 1 C Z $end
$var wire 32 D comp_subtrahend [31:0] $end
$var wire 32 E difference [31:0] $end
$var wire 32 F minuend [31:0] $end
$var wire 32 G subtrahend [31:0] $end
$upscope $end
$scope module and_module $end
$var wire 32 H a [31:0] $end
$var wire 32 I b [31:0] $end
$var wire 1 J carryOut $end
$var wire 1 K negative $end
$var wire 1 L overflow $end
$var wire 32 M sum [31:0] $end
$var wire 1 N zero $end
$upscope $end
$scope module or_module $end
$var wire 32 O a [31:0] $end
$var wire 32 P b [31:0] $end
$var wire 1 Q carryOut $end
$var wire 1 R negative $end
$var wire 1 S overflow $end
$var wire 32 T sum [31:0] $end
$var wire 1 U zero $end
$upscope $end
$scope module xor_module $end
$var wire 32 V a [31:0] $end
$var wire 32 W b [31:0] $end
$var wire 1 X carryOut $end
$var wire 1 Y negative $end
$var wire 1 Z overflow $end
$var wire 32 [ sum [31:0] $end
$var wire 1 \ zero $end
$upscope $end
$scope module slt_module $end
$var wire 31 ] digit_less_eq [30:0] $end
$var wire 31 ^ digit_lesser [30:0] $end
$var wire 1 _ fast_calc $end
$var wire 1 ` msb_same $end
$var wire 32 a neg_op0 [31:0] $end
$var wire 32 b neg_op1 [31:0] $end
$var wire 32 c operand0 [31:0] $end
$var wire 32 d operand1 [31:0] $end
$var wire 32 e result [31:0] $end
$var wire 1 f slow_calc $end
$var wire 30 g sum_less_eq [29:0] $end
$var wire 30 h sum_valid_less_than [29:0] $end
$var wire 30 i valid_less_than [29:0] $end
$upscope $end
$scope module sll_module $end
$var wire 32 j mux1 [31:0] $end
$var wire 32 k mux2 [31:0] $end
$var wire 32 l mux3 [31:0] $end
$var wire 32 m mux4 [31:0] $end
$var wire 32 n mux5 [31:0] $end
$var wire 32 o num [31:0] $end
$var wire 6 p shift [5:0] $end
$var wire 6 q shift_filter [5:0] $end
$var wire 32 r shift_num [31:0] $end
$upscope $end
$upscope $end
$upscope $end
$enddefinitions $end
#0
$dumpvars
bx r
bx q
bx p
bx o
bx n
bx m
bx l
bx k
bx j
bx i
bx h
bx g
xf
b0x e
bx d
bx c
bx b
bx a
x`
x_
bx ^
bx ]
0\
bx [
0Z
0Y
0X
bx W
bx V
0U
bx T
0S
0R
0Q
bx P
bx O
0N
bx M
0L
0K
0J
bx I
bx H
bx G
bx F
bx E
bx D
xC
bx B
bx0 A
bx @
x?
x>
x=
bx <
bx ;
bx :
bx 9
bx 8
x7
06
bx 5
bx 4
x3
x2
x1
b0x 0
bx /
bx .
bx -
bx ,
bx +
bx *
bx )
bx (
x'
x&
x%
x$
x#
x"
x!
$end
#10
b1 )
#20
11
02
1C
b0 0
b0 e
0f
07
b10100000000000 /
b10100000000000 r
0#
0$
1?
0"
0'
b10100000000000 n
0!
0>
0&
b101000 l
b10100 .
0%
b10100000000000 m
b0 h
b101000 k
b111111111111111111111111111111 g
03
b0 i
b0 *
b0 E
b1010 q
b1111111111111111111111111111100 @
b0 A
b1010 j
b1010 ;
b1111111111111111111111111111111 ]
b0 ^
b11111111111111111111111111110101 b
b11111111111111111111111111110101 D
1`
0_
b11111111111111111111111111110101 a
b10100 4
b10100 B
1=
b1010 <
b1010 :
b1010 p
b0 5
b0 [
b1010 -
b1010 T
b1010 (
b1010 M
b1010 ,
b1010 9
b1010 G
b1010 I
b1010 P
b1010 W
b1010 d
b1010 +
b1010 8
b1010 F
b1010 H
b1010 O
b1010 V
b1010 c
b1010 o
#30
01
b1010 l
b1010 n
b11111111111111111111111111110110 .
0C
03
b1010 k
b1010 m
b0 /
b0 r
02
1"
b111111111111111111111111111100 g
b111111111111111111111111100100 i
b111111111111111111111111111111 h
b11110 *
b11110 E
b0 A
b1000 ;
1>
1&
b1111111111111111111111111111110 @
b100000 q
0`
b1111111111111111111111111111101 ]
b1111111111111111111111111100100 ^
b10011 b
b10011 D
0=
b11111111111111111111111111101110 <
b1000 :
b11111111111111111111111111110110 4
b11111111111111111111111111110110 B
b11111111111111111111111111100110 5
b11111111111111111111111111100110 [
b11111111111111111111111111101110 -
b11111111111111111111111111101110 T
b1000 (
b1000 M
b101100 p
b11111111111111111111111111101100 ,
b11111111111111111111111111101100 9
b11111111111111111111111111101100 G
b11111111111111111111111111101100 I
b11111111111111111111111111101100 P
b11111111111111111111111111101100 W
b11111111111111111111111111101100 d
#40
1!
0"
1%
0>
0&
b10100 n
b10100 m
b10100 l
b1010 .
b10100 k
b111111111111111111111111111111 g
b111111111111111111111111100010 i
b11111111111111111111111111100000 A
b11111111111111111111111111110100 ;
b10100 j
b1111111111111111111111111111111 ]
b1111111111111111111111111100010 ^
b1001 b
b1001 D
b11111111111111111111111111101011 a
b11110 *
b11110 E
b11111111111111111111111111110110 <
b10100 :
b1010 4
b1010 B
b110110 p
b11111111111111111111111111100010 5
b11111111111111111111111111100010 [
b11111111111111111111111111110110 -
b11111111111111111111111111110110 T
b10100 (
b10100 M
b11111111111111111111111111110110 ,
b11111111111111111111111111110110 9
b11111111111111111111111111110110 G
b11111111111111111111111111110110 I
b11111111111111111111111111110110 P
b11111111111111111111111111110110 W
b11111111111111111111111111110110 d
b10100 +
b10100 8
b10100 F
b10100 H
b10100 O
b10100 V
b10100 c
b10100 o
#50
11
1C
b11111111111111111111111111110110 n
b11111111111111111111111111110110 m
b11111111111111111111111111110110 l
b11111111111111111111111111101100 .
b0 h
b11111111111111111111111111110110 k
b0 i
b11111111111111111111111111100100 A
1"
0#
b0 0
b0 e
b0 ^
02
1?
b11111111111111111111111111110110 ;
1&
b1111111111111111111111111111100 @
b11111111111111111111111111110110 j
0f
0'
1`
b1001 a
b0 *
b0 E
0>
1=
b11111111111111111111111111110110 :
b11111111111111111111111111101100 4
b11111111111111111111111111101100 B
b0 5
b0 [
b11111111111111111111111111110110 (
b11111111111111111111111111110110 M
b11111111111111111111111111110110 +
b11111111111111111111111111110110 8
b11111111111111111111111111110110 F
b11111111111111111111111111110110 H
b11111111111111111111111111110110 O
b11111111111111111111111111110110 V
b11111111111111111111111111110110 c
b11111111111111111111111111110110 o
#60
1C
b1111111111111111111111111111111 n
b1111111111111111111111111111111 m
b11111111111111111111111111111110 .
0!
b0 0
b0 e
b1111111111111111111111111111111 l
0f
11
0%
b1111111111111111111111111111110 @
b0 h
b1111111111111111111111111111111 k
b11111111111111111111111111111110 4
b11111111111111111111111111111110 B
1#
b0 i
02
0?
b1111111111111111111111111111110 A
b1111111111111111111111111111111 j
b1111111111111111111111111111111 ;
1'
b0 ^
b10000000000000000000000000000000 b
b10000000000000000000000000000000 D
b10000000000000000000000000000000 a
b0 *
b0 E
1>
b1111111111111111111111111111111 <
b1111111111111111111111111111111 :
b111111 p
b1111111111111111111111111111111 -
b1111111111111111111111111111111 T
b1111111111111111111111111111111 (
b1111111111111111111111111111111 M
b1111111111111111111111111111111 ,
b1111111111111111111111111111111 9
b1111111111111111111111111111111 G
b1111111111111111111111111111111 I
b1111111111111111111111111111111 P
b1111111111111111111111111111111 W
b1111111111111111111111111111111 d
b1111111111111111111111111111111 +
b1111111111111111111111111111111 8
b1111111111111111111111111111111 F
b1111111111111111111111111111111 H
b1111111111111111111111111111111 O
b1111111111111111111111111111111 V
b1111111111111111111111111111111 c
b1111111111111111111111111111111 o
#70
17
b11111111111111111111111111111110 n
b11111111111111111111111111111110 m
b11111111111111111111111111111110 l
b11111111111111111111111111111110 k
b10000000000000000000000000000000 .
0C
b11111111111111111111111111111110 j
b11111111111111111111111111111110 /
b11111111111111111111111111111110 r
b0 g
b1111111111111111111111111111110 *
b1111111111111111111111111111110 E
b0 @
b1 q
b1 ]
b11111111111111111111111111111110 b
b11111111111111111111111111111110 D
b1 :
b10000000000000000000000000000000 4
b10000000000000000000000000000000 B
b1111111111111111111111111111110 5
b1111111111111111111111111111110 [
b1 (
b1 M
b1 p
b1 ,
b1 9
b1 G
b1 I
b1 P
b1 W
b1 d
#80
1C
b10111011100110101100100111111111 n
b10111011100110101100100111111111 m
0"
0&
b10111011100110101100100111111111 l
b1110111001101011001001111111110 .
1!
b0 /
b0 r
b10111011100110101100100111111111 k
b111111111111111111111111111111 g
1%
07
1#
b100000 q
02
0?
b10111011100110101100100111111111 ;
b110011000100001000000111111110 A
b1111111111111111111111111111110 @
b10111011100110101100100111111111 j
b0 0
b0 e
03
1'
b1111111111111111111111111111111 ]
b1000100011001010011011000000000 b
b1000100011001010011011000000000 D
0_
b1000100011001010011011000000000 a
b0 *
b0 E
1>
b10111011100110101100100111111111 :
b10111011100110101100100111111111 <
b1110111001101011001001111111110 4
b1110111001101011001001111111110 B
b111111 p
b0 5
b0 [
b10111011100110101100100111111111 -
b10111011100110101100100111111111 T
b10111011100110101100100111111111 (
b10111011100110101100100111111111 M
b10111011100110101100100111111111 ,
b10111011100110101100100111111111 9
b10111011100110101100100111111111 G
b10111011100110101100100111111111 I
b10111011100110101100100111111111 P
b10111011100110101100100111111111 W
b10111011100110101100100111111111 d
b10111011100110101100100111111111 +
b10111011100110101100100111111111 8
b10111011100110101100100111111111 F
b10111011100110101100100111111111 H
b10111011100110101100100111111111 O
b10111011100110101100100111111111 V
b10111011100110101100100111111111 c
b10111011100110101100100111111111 o
#90
17
11
b10000000000000000000000000000000 n
1$
02
b10000000000000000000000000000000 m
b0 .
b10000000000000000000000000000000 l
1C
b10000000000000000000000000000000 /
b10000000000000000000000000000000 r
b0 @
b10000000000000000000000000000000 k
b0 4
b0 B
b111111111111111111111111111111 g
b0 q
b0 A
b10000000000000000000000000000000 j
b10000000000000000000000000000000 ;
b1111111111111111111111111111111 ]
b1111111111111111111111111111111 b
b1111111111111111111111111111111 D
b1111111111111111111111111111111 a
b0 *
b0 E
b10000000000000000000000000000000 <
b10000000000000000000000000000000 :
b0 p
b10000000000000000000000000000000 -
b10000000000000000000000000000000 T
b10000000000000000000000000000000 (
b10000000000000000000000000000000 M
b10000000000000000000000000000000 ,
b10000000000000000000000000000000 9
b10000000000000000000000000000000 G
b10000000000000000000000000000000 I
b10000000000000000000000000000000 P
b10000000000000000000000000000000 W
b10000000000000000000000000000000 d
b10000000000000000000000000000000 +
b10000000000000000000000000000000 8
b10000000000000000000000000000000 F
b10000000000000000000000000000000 H
b10000000000000000000000000000000 O
b10000000000000000000000000000000 V
b10000000000000000000000000000000 c
b10000000000000000000000000000000 o
#100
b11111111111111111111000000000000 /
b11111111111111111111000000000000 r
b11111111111111111111000000000000 n
b11111111111111111111000000000000 m
b11111111111111111111000000000000 l
0$
b1111111111111111111000000000000 .
b11111111111111111111000000000000 k
b0 g
0C
07
b111111111111 ]
b1111111111111111111000000000000 @
b11111111111111111111000000000000 j
b111111111111 a
b1111111111111111111000000000000 *
b1111111111111111111000000000000 E
b11111111111111111111000000000000 <
b1111111111111111111000000000000 4
b1111111111111111111000000000000 B
b1111111111111111111000000000000 5
b1111111111111111111000000000000 [
b11111111111111111111000000000000 -
b11111111111111111111000000000000 T
b11111111111111111111000000000000 +
b11111111111111111111000000000000 8
b11111111111111111111000000000000 F
b11111111111111111111000000000000 H
b11111111111111111111000000000000 O
b11111111111111111111000000000000 V
b11111111111111111111000000000000 c
b11111111111111111111000000000000 o
