Lab3/verilog/alu_dataflow/alu_test_out.vcd
$date
	Tue May 03 01:39:22 2016
$end
$version
	Icarus Verilog
$end
$timescale
	1s
$end
$scope module alu_dataflow_tb $end
$scope module alu $end
$var wire 1 ! C $end
$var wire 1 " N $end
$var wire 1 # V $end
$var wire 1 $ Z $end
$var wire 1 % add_C $end
$var wire 1 & add_N $end
$var wire 1 ' add_V $end
$var wire 32 ( and_result [31:0] $end
$var wire 3 ) control [2:0] $end
$var wire 32 * difference [31:0] $end
$var wire 32 + operand0 [31:0] $end
$var wire 32 , operand1 [31:0] $end
$var wire 32 - or_result [31:0] $end
$var wire 32 . result [31:0] $end
$var wire 32 / sll_result [31:0] $end
$var wire 32 0 slt_result [31:0] $end
$var wire 1 1 sub_C $end
$var wire 1 2 sub_N $end
$var wire 1 3 sub_V $end
$var wire 32 4 sum [31:0] $end
$var wire 32 5 xor_result [31:0] $end
$scope module adder_module $end
$var wire 1 % C $end
$var wire 1 6 Cin $end
$var wire 1 & N $end
$var wire 1 ' V $end
$var wire 1 7 Z $end
$var wire 32 8 addend0 [31:0] $end
$var wire 32 9 addend1 [31:0] $end
$var wire 32 : and_addend_pairs [31:0] $end
$var wire 32 ; carry [31:0] $end
$var wire 32 < carry_propogate [31:0] $end
$var wire 1 = msb_addend_same $end
$var wire 1 > msb_sum_diff $end
$var wire 1 ? not_overflow $end
$var wire 31 @ pre_zero [30:0] $end
$var wire 32 A prop_carry [31:0] $end
$var wire 32 B sum [31:0] $end
$upscope $end
$scope module subtract_module $end
$var wire 1 1 C $end
$var wire 1 2 N $end
$var wire 1 3 V $end
$var wire 1 C Z $end
$var wire 32 D comp_subtrahend [31:0] $end
$var wire 32 E difference [31:0] $end
$var wire 32 F minuend [31:0] $end
$var wire 32 G subtrahend [31:0] $end
$upscope $end
$scope module and_module $end
$var wire 32 H a [31:0] $end
$var wire 32 I b [31:0] $end
$var wire 1 J carryOut $end
$var wire 1 K negative $end
$var wire 1 L overflow $end
$var wire 32 M sum [31:0] $end
$var wire 1 N zero $end
$upscope $end
$scope module or_module $end
$var wire 32 O a [31:0] $end
$var wire 32 P b [31:0] $end
$var wire 1 Q carryOut $end
$var wire 1 R negative $end
$var wire 1 S overflow $end
$var wire 32 T sum [31:0] $end
$var wire 1 U zero $end
$upscope $end
$scope module xor_module $end
$var wire 32 V a [31:0] $end
$var wire 32 W b [31:0] $end
$var wire 1 X carryOut $end
$var wire 1 Y negative $end
$var wire 1 Z overflow $end
$var wire 32 [ sum [31:0] $end
$var wire 1 \ zero $end
$upscope $end
$scope module slt_module $end
$var wire 31 ] digit_less_eq [30:0] $end
$var wire 31 ^ digit_lesser [30:0] $end
$var wire 1 _ fast_calc $end
$var wire 1 ` msb_same $end
$var wire 32 a neg_op0 [31:0] $end
$var wire 32 b neg_op1 [31:0] $end
$var wire 32 c operand0 [31:0] $end
$var wire 32 d operand1 [31:0] $end
$var wire 32 e result [31:0] $end
$var wire 1 f slow_calc $end
$var wire 30 g sum_less_eq [29:0] $end
$var wire 30 h sum_valid_less_than [29:0] $end
$var wire 30 i valid_less_than [29:0] $end
$upscope $end
$scope module sll_module $end
$var wire 32 j mux1 [31:0] $end
$var wire 32 k mux2 [31:0] $end
$var wire 32 l mux3 [31:0] $end
$var wire 32 m mux4 [31:0] $end
$var wire 32 n mux5 [31:0] $end
$var wire 32 o num [31:0] $end
$var wire 6 p shift [5:0] $end
$var wire 6 q shift_filter [5:0] $end
$var wire 32 r shift_num [31:0] $end
$upscope $end
$upscope $end
$upscope $end
$enddefinitions $end
#0
$dumpvars
bx r
bx q
bx p
bx o
bx n
bx m
bx l
bx k
bx j
bx i
bx h
bx g
xf
b0x e
bx d
bx c
bx b
bx a
x`
x_
bx ^
bx ]
0\
bx [
0Z
0Y
0X
bx W
bx V
0U
bx T
0S
0R
0Q
bx P
bx O
0N
bx M
0L
0K
0J
bx I
bx H
bx G
bx F
bx E
bx D
xC
bx B
bx0 A
bx @
x?
x>
x=
bx <
bx ;
bx :
bx 9
bx 8
x7
06
bx 5
bx 4
x3
x2
x1
b0x 0
bx /
bx .
bx -
bx ,
bx +
bx *
bx )
bx (
x'
x&
x%
x$
x#
x"
x!
$end
#30
b10 )
#40
1$
1!
0"
11
02
1C
17
b0 0
b0 e
0f
b0 /
b0 r
b0 n
b0 m
1?
b0 .
0'
0>
0&
b0 l
0%
0#
b0 h
b0 k
b111111111111111111111111111111 g
03
b0 i
b0 *
b0 E
b0 q
b1111111111111111111111111111111 ]
b0 @
b0 A
b0 j
b0 ;
b0 ^
b11111111111111111111111111111111 b
b11111111111111111111111111111111 D
1`
0_
b11111111111111111111111111111111 a
b0 4
b0 B
1=
b0 <
b0 :
b0 p
b0 5
b0 [
b0 -
b0 T
b0 (
b0 M
b0 ,
b0 9
b0 G
b0 I
b0 P
b0 W
b0 d
b0 +
b0 8
b0 F
b0 H
b0 O
b0 V
b0 c
b0 o
#50
07
1C
b111110100 n
b0 0
b0 e
0f
b111110100 m
b111110100 l
1$
b0 .
b1111111111111111111111111111000 @
b0 h
b111110100 k
b111100000 A
b1111101000 4
b1111101000 B
b0 i
b100000 q
b111110100 ;
b111110100 j
b0 ^
b11111111111111111111111000001011 b
b11111111111111111111111000001011 D
b11111111111111111111111000001011 a
b0 *
b0 E
b111110100 <
b111110100 :
b110100 p
b111110100 -
b111110100 T
b111110100 (
b111110100 M
b111110100 ,
b111110100 9
b111110100 G
b111110100 I
b111110100 P
b111110100 W
b111110100 d
b111110100 +
b111110100 8
b111110100 F
b111110100 H
b111110100 O
b111110100 V
b111110100 c
b111110100 o
#60
1!
0"
11
02
b0 0
b0 e
0f
b11101110011010110010100000000 n
b11101110011010110010100000000 m
1C
b11101110011010110010100000000 l
1$
b0 .
b1111111111111111111111000000000 @
b11101110011010110010100000000 /
b11101110011010110010100000000 r
b0 h
b11101110011010110010100000000 k
b111011100110101100101000000000 4
b111011100110101100101000000000 B
b111111111111111111111111111111 g
b0 i
b0 q
b11001100010000100000000000000 A
b11101110011010110010100000000 ;
b11101110011010110010100000000 j
b1111111111111111111111111111111 ]
b0 ^
b11100010001100101001101011111111 b
b11100010001100101001101011111111 D
b11100010001100101001101011111111 a
b0 *
b0 E
b11101110011010110010100000000 <
b11101110011010110010100000000 :
b0 p
b11101110011010110010100000000 -
b11101110011010110010100000000 T
b11101110011010110010100000000 (
b11101110011010110010100000000 M
b11101110011010110010100000000 ,
b11101110011010110010100000000 9
b11101110011010110010100000000 G
b11101110011010110010100000000 I
b11101110011010110010100000000 P
b11101110011010110010100000000 W
b11101110011010110010100000000 d
b11101110011010110010100000000 +
b11101110011010110010100000000 8
b11101110011010110010100000000 F
b11101110011010110010100000000 H
b11101110011010110010100000000 O
b11101110011010110010100000000 V
b11101110011010110010100000000 c
b11101110011010110010100000000 o
#80
0%
b11111111111111111001100000000000 /
b11111111111111111001100000000000 r
b11111111111111111001100000000000 n
b11111111111111111111111110011000 l
0$
b11111111111111111111111111011100 .
b11111111111111111001100000000000 m
b0 h
b11111111111111111111111110011000 k
1"
0C
0#
b0 i
b0 g
b1010 q
12
b1100 A
b1110 ;
1&
b1111111111111111111111111110000 @
b11111111111111111111111111100110 j
b1 0
b1 e
03
b1000 ^
b11011 ]
b11111111111111111111111111110101 b
b11111111111111111111111111110101 D
0`
1_
b11001 a
b11111111111111111111111111011100 *
b11111111111111111111111111011100 E
0>
0=
b11111111111111111111111111101110 <
b10 :
b11111111111111111111111111110000 4
b11111111111111111111111111110000 B
b1010 p
b11111111111111111111111111101100 5
b11111111111111111111111111101100 [
b11111111111111111111111111101110 -
b11111111111111111111111111101110 T
b10 (
b10 M
b1010 ,
b1010 9
b1010 G
b1010 I
b1010 P
b1010 W
b1010 d
b11111111111111111111111111100110 +
b11111111111111111111111111100110 8
b11111111111111111111111111100110 F
b11111111111111111111111111100110 H
b11111111111111111111111111100110 O
b11111111111111111111111111100110 V
b11111111111111111111111111100110 c
b11111111111111111111111111100110 o
#90
17
1%
1>
0&
b11111111111111111111111111111110 /
b11111111111111111111111111111110 r
b11111111111111111111111111111110 n
b11111111111111111111111111111110 l
b11111111111111111111111111111110 .
b11111111111111111111111111111110 m
b11111111111111111111111111111110 k
b1 q
b11111111111111111111111111111110 A
b0 @
b11111111111111111111111111111110 j
b11111111111111111111111111111111 ;
b1 ]
b0 ^
b11111111111111111111111111111110 b
b11111111111111111111111111111110 D
b0 a
b11111111111111111111111111111110 *
b11111111111111111111111111111110 E
b11111111111111111111111111111111 <
b1 :
b0 4
b0 B
b1 p
b11111111111111111111111111111110 5
b11111111111111111111111111111110 [
b11111111111111111111111111111111 -
b11111111111111111111111111111111 T
b1 (
b1 M
b1 ,
b1 9
b1 G
b1 I
b1 P
b1 W
b1 d
b11111111111111111111111111111111 +
b11111111111111111111111111111111 8
b11111111111111111111111111111111 F
b11111111111111111111111111111111 H
b11111111111111111111111111111111 O
b11111111111111111111111111111111 V
b11111111111111111111111111111111 c
b11111111111111111111111111111111 o
#100
0C
07
0$
b1010 n
0!
b1010 m
01
0#
b1010 l
b10000 .
03
b0 /
b0 r
b1010 k
b111111111111111111111111111111 h
b111111111111111111111111110000 i
0"
b111111111111111111111111111111 g
b100000 q
b1111111111111111111111111110000 ^
02
b11111111111111111111111111110000 A
b1111111111111111111111111111100 @
b1010 j
b0 0
b0 e
b11111111111111111111111111111010 ;
b1111111111111111111111111111111 ]
b101 b
b101 D
0_
b11111111111111111111111111110101 a
b10000 *
b10000 E
0>
b11111111111111111111111111111010 <
b1010 :
b100 4
b100 B
b111010 p
b11111111111111111111111111110000 5
b11111111111111111111111111110000 [
b11111111111111111111111111111010 -
b11111111111111111111111111111010 T
b1010 (
b1010 M
b11111111111111111111111111111010 ,
b11111111111111111111111111111010 9
b11111111111111111111111111111010 G
b11111111111111111111111111111010 I
b11111111111111111111111111111010 P
b11111111111111111111111111111010 W
b11111111111111111111111111111010 d
b1010 +
b1010 8
b1010 F
b1010 H
b1010 O
b1010 V
b1010 c
b1010 o
#110
0%
1>
1&
b101 n
b101 m
b101 l
b1111 .
b101 k
b111111111111111111111111110010 i
b111111111111111111111111111110 g
b0 A
b100 ;
b1111111111111111111111111111111 @
b101 j
b1111111111111111111111111110010 ^
b1111111111111111111111111111110 ]
b1001 b
b1001 D
b11111111111111111111111111111010 a
b1111 *
b1111 E
b100 :
b11111111111111111111111111110111 <
b11111111111111111111111111111011 4
b11111111111111111111111111111011 B
b110110 p
b11111111111111111111111111110011 5
b11111111111111111111111111110011 [
b11111111111111111111111111110111 -
b11111111111111111111111111110111 T
b100 (
b100 M
b11111111111111111111111111110110 ,
b11111111111111111111111111110110 9
b11111111111111111111111111110110 G
b11111111111111111111111111110110 I
b11111111111111111111111111110110 P
b11111111111111111111111111110110 W
b11111111111111111111111111110110 d
b101 +
b101 8
b101 F
b101 H
b101 O
b101 V
b101 c
b101 o
#120
1$
1C
1!
11
b1111111111111111111111111111111 n
b1111111111111111111111111111111 m
b1111111111111111111111111111111 l
b0 .
0"
b0 h
02
b1111111111111111111111111111111 k
b0 0
b0 e
b111111111111111111111111111111 g
b0 i
b1111111111111111111111111111110 @
0?
1>
1&
b1111111111111111111111111111110 A
0f
b1111111111111111111111111111111 ;
1'
b1111111111111111111111111111111 j
1`
b1111111111111111111111111111111 ]
b0 ^
b10000000000000000000000000000000 b
b10000000000000000000000000000000 D
1=
b10000000000000000000000000000000 a
b0 *
b0 E
b1111111111111111111111111111111 <
b1111111111111111111111111111111 :
b11111111111111111111111111111110 4
b11111111111111111111111111111110 B
b111111 p
b0 5
b0 [
b1111111111111111111111111111111 -
b1111111111111111111111111111111 T
b1111111111111111111111111111111 (
b1111111111111111111111111111111 M
b1111111111111111111111111111111 ,
b1111111111111111111111111111111 9
b1111111111111111111111111111111 G
b1111111111111111111111111111111 I
b1111111111111111111111111111111 P
b1111111111111111111111111111111 W
b1111111111111111111111111111111 d
b1111111111111111111111111111111 +
b1111111111111111111111111111111 8
b1111111111111111111111111111111 F
b1111111111111111111111111111111 H
b1111111111111111111111111111111 O
b1111111111111111111111111111111 V
b1111111111111111111111111111111 c
b1111111111111111111111111111111 o
#140
b10111011100110101100100111111111 n
1!
b10111011100110101100100111111111 m
11
0&
b10111011100110101100100111111111 l
1$
b0 .
b1110111001101011001001111111110 4
b1110111001101011001001111111110 B
b10111011100110101100100111111111 k
0"
1C
1%
0#
b111111111111111111111111111111 g
02
0?
b10111011100110101100100111111111 ;
b110011000100001000000111111110 A
b10111011100110101100100111111111 j
b0 0
b0 e
03
1'
b1111111111111111111111111111111 ]
b1000100011001010011011000000000 b
b1000100011001010011011000000000 D
0_
b1000100011001010011011000000000 a
b0 *
b0 E
1>
b10111011100110101100100111111111 <
b10111011100110101100100111111111 :
b10111011100110101100100111111111 -
b10111011100110101100100111111111 T
b10111011100110101100100111111111 (
b10111011100110101100100111111111 M
b10111011100110101100100111111111 ,
b10111011100110101100100111111111 9
b10111011100110101100100111111111 G
b10111011100110101100100111111111 I
b10111011100110101100100111111111 P
b10111011100110101100100111111111 W
b10111011100110101100100111111111 d
b10111011100110101100100111111111 +
b10111011100110101100100111111111 8
b10111011100110101100100111111111 F
b10111011100110101100100111111111 H
b10111011100110101100100111111111 O
b10111011100110101100100111111111 V
b10111011100110101100100111111111 c
b10111011100110101100100111111111 o
#160
b11111111111111111111000000000000 n
b11111111111111111111000000000000 m
0?
1'
1>
0&
b11111111111111111111000000000000 l
0$
b1111111111111111111000000000000 .
b11111111111111111111000000000000 /
b11111111111111111111000000000000 r
b1111111111111111111000000000000 @
b11111111111111111111000000000000 k
0C
b0 g
b0 q
b0 A
b11111111111111111111000000000000 j
b10000000000000000000000000000000 ;
b111111111111 ]
b1111111111111111111111111111111 b
b1111111111111111111111111111111 D
b111111111111 a
b1111111111111111111000000000000 *
b1111111111111111111000000000000 E
b11111111111111111111000000000000 <
b10000000000000000000000000000000 :
b1111111111111111111000000000000 4
b1111111111111111111000000000000 B
b0 p
b1111111111111111111000000000000 5
b1111111111111111111000000000000 [
b11111111111111111111000000000000 -
b11111111111111111111000000000000 T
b10000000000000000000000000000000 (
b10000000000000000000000000000000 M
b10000000000000000000000000000000 ,
b10000000000000000000000000000000 9
b10000000000000000000000000000000 G
b10000000000000000000000000000000 I
b10000000000000000000000000000000 P
b10000000000000000000000000000000 W
b10000000000000000000000000000000 d
b11111111111111111111000000000000 +
b11111111111111111111000000000000 8
b11111111111111111111000000000000 F
b11111111111111111111000000000000 H
b11111111111111111111000000000000 O
b11111111111111111111000000000000 V
b11111111111111111111000000000000 c
b11111111111111111111000000000000 o
#180
1C
b1111111111111111111111111111111 n
b1111111111111111111111111111111 m
1$
1!
b1111111111111111111111111111111 l
b0 .
1&
11
b0 /
b0 r
b1111111111111111111111111111111 k
0"
0%
b1111111111111111111111111111110 A
b111111111111111111111111111111 g
b1111111111111111111111111111110 @
b100000 q
02
0?
b1111111111111111111111111111111 j
b1111111111111111111111111111111 ;
1'
b0 ^
b1111111111111111111111111111111 ]
b10000000000000000000000000000000 b
b10000000000000000000000000000000 D
b11111111111111111111111111111110 4
b11111111111111111111111111111110 B
b10000000000000000000000000000000 a
b0 *
b0 E
1>
b1111111111111111111111111111111 <
b1111111111111111111111111111111 :
b111111 p
b0 5
b0 [
b1111111111111111111111111111111 -
b1111111111111111111111111111111 T
b1111111111111111111111111111111 (
b1111111111111111111111111111111 M
b1111111111111111111111111111111 ,
b1111111111111111111111111111111 9
b1111111111111111111111111111111 G
b1111111111111111111111111111111 I
b1111111111111111111111111111111 P
b1111111111111111111111111111111 W
b1111111111111111111111111111111 d
b1111111111111111111111111111111 +
b1111111111111111111111111111111 8
b1111111111111111111111111111111 F
b1111111111111111111111111111111 H
b1111111111111111111111111111111 O
b1111111111111111111111111111111 V
b1111111111111111111111111111111 c
b1111111111111111111111111111111 o
#200
b1 h
b1 i
b0 n
b0 m
b0 l
0$
b1111111111111111111111111111111 .
0%
b0 /
b0 r
b0 k
0"
0C
1#
b111111111111111111111111111111 g
b1 q
b1 ^
02
b1111111111111111111111111111111 @
1?
b0 A
1&
b0 j
b1 0
b1 e
13
b0 ;
0'
b1111111111111111111111111111111 ]
b11111111111111111111111111111110 b
b11111111111111111111111111111110 D
0`
1_
b1111111111111111111111111111111 a
b1111111111111111111111111111111 *
b1111111111111111111111111111111 E
0>
0=
b10000000000000000000000000000001 <
b0 :
b10000000000000000000000000000001 4
b10000000000000000000000000000001 B
b1 p
b10000000000000000000000000000001 5
b10000000000000000000000000000001 [
b10000000000000000000000000000001 -
b10000000000000000000000000000001 T
b0 (
b0 M
b1 ,
b1 9
b1 G
b1 I
b1 P
b1 W
b1 d
b10000000000000000000000000000000 +
b10000000000000000000000000000000 8
b10000000000000000000000000000000 F
b10000000000000000000000000000000 H
b10000000000000000000000000000000 O
b10000000000000000000000000000000 V
b10000000000000000000000000000000 c
b10000000000000000000000000000000 o
#220
1$
1C
17
b11000000000000000000000000000000 /
b11000000000000000000000000000000 r
b11000000000000000000000000000000 n
b11000000000000000000000000000000 m
1!
b0 0
b0 e
b11000000000000000000000000000000 l
b0 .
0"
11
0#
02
1%
1?
b11000000000000000000000000000000 k
b10000000000000000000000000000000 A
03
0'
b0 i
b0 h
0_
b0 @
0>
1&
b0 q
b11000000000000000000000000000000 ;
0f
b11000000000000000000000000000000 j
1`
b0 ^
b111111111111111111111111111111 b
b111111111111111111111111111111 D
1=
b10000000000000000000000000000000 4
b10000000000000000000000000000000 B
b111111111111111111111111111111 a
b0 *
b0 E
b11000000000000000000000000000000 <
b11000000000000000000000000000000 :
b0 p
b0 5
b0 [
b11000000000000000000000000000000 -
b11000000000000000000000000000000 T
b11000000000000000000000000000000 (
b11000000000000000000000000000000 M
b11000000000000000000000000000000 ,
b11000000000000000000000000000000 9
b11000000000000000000000000000000 G
b11000000000000000000000000000000 I
b11000000000000000000000000000000 P
b11000000000000000000000000000000 W
b11000000000000000000000000000000 d
b11000000000000000000000000000000 +
b11000000000000000000000000000000 8
b11000000000000000000000000000000 F
b11000000000000000000000000000000 H
b11000000000000000000000000000000 O
b11000000000000000000000000000000 V
b11000000000000000000000000000000 c
b11000000000000000000000000000000 o
#240
b10000000000000000000000000000000 /
b10000000000000000000000000000000 r
b10000000000000000000000000000000 n
1!
b10000000000000000000000000000000 m
0"
11
02
0?
b10000000000000000000000000000000 l
1$
b0 .
1'
1>
0&
b10000000000000000000000000000000 k
1C
b0 4
b0 B
b0 A
b111111111111111111111111111111 g
b10000000000000000000000000000000 ;
b10000000000000000000000000000000 j
b1111111111111111111111111111111 ]
b1111111111111111111111111111111 b
b1111111111111111111111111111111 D
b1111111111111111111111111111111 a
b0 *
b0 E
b10000000000000000000000000000000 <
b10000000000000000000000000000000 :
b10000000000000000000000000000000 -
b10000000000000000000000000000000 T
b10000000000000000000000000000000 (
b10000000000000000000000000000000 M
b10000000000000000000000000000000 ,
b10000000000000000000000000000000 9
b10000000000000000000000000000000 G
b10000000000000000000000000000000 I
b10000000000000000000000000000000 P
b10000000000000000000000000000000 W
b10000000000000000000000000000000 d
b10000000000000000000000000000000 +
b10000000000000000000000000000000 8
b10000000000000000000000000000000 F
b10000000000000000000000000000000 H
b10000000000000000000000000000000 O
b10000000000000000000000000000000 V
b10000000000000000000000000000000 c
b10000000000000000000000000000000 o
#260
b11111111111111111111111111110110 n
b11111111111111111111111111110110 m
b0 0
b0 e
0f
1?
07
b11111111111111111111111111110110 l
1$
b0 .
0'
0>
1&
b1111111111111111111111111111100 @
b0 /
b0 r
b11111111111111111111111111110110 k
1C
b11111111111111111111111111101100 4
b11111111111111111111111111101100 B
b11111111111111111111111111100100 A
b0 i
b0 h
b11111111111111111111111111110110 ;
b100000 q
b11111111111111111111111111110110 j
b1001 a
b0 *
b0 E
b0 ^
b1001 b
b1001 D
b11111111111111111111111111110110 <
b11111111111111111111111111110110 :
b11111111111111111111111111110110 -
b11111111111111111111111111110110 T
b11111111111111111111111111110110 (
b11111111111111111111111111110110 M
b110110 p
b11111111111111111111111111110110 +
b11111111111111111111111111110110 8
b11111111111111111111111111110110 F
b11111111111111111111111111110110 H
b11111111111111111111111111110110 O
b11111111111111111111111111110110 V
b11111111111111111111111111110110 c
b11111111111111111111111111110110 o
b11111111111111111111111111110110 ,
b11111111111111111111111111110110 9
b11111111111111111111111111110110 G
b11111111111111111111111111110110 I
b11111111111111111111111111110110 P
b11111111111111111111111111110110 W
b11111111111111111111111111110110 d
