Lab4/Verilog/Program_Control/PC_Test.vcd
$date
	Thu May 12 20:48:10 2016
$end
$version
	Icarus Verilog
$end
$timescale
	1s
$end
$scope module PC_tb $end
$scope module dut $end
$var wire 32 ! writeInstruction [31:0] $end
$var wire 1 " writeEnable $end
$var wire 7 # writeAddress [6:0] $end
$var wire 1 $ suspendEnable $end
$var wire 32 % signExtended [31:0] $end
$var wire 1 & reset $end
$var wire 1 ' negative $end
$var wire 32 ( jumpRegAddr [31:0] $end
$var wire 1 ) jumpReg $end
$var wire 1 * jump $end
$var wire 32 + instruction [31:0] $end
$var wire 1 , clk $end
$var wire 1 - branch $end
$var reg 7 . counter [6:0] $end
$scope module extender $end
$var wire 16 / in16 [15:0] $end
$var wire 32 0 out32 [31:0] $end
$upscope $end
$scope module inst_mem $end
$var wire 7 1 read_addr [6:0] $end
$var wire 32 2 write_data [31:0] $end
$var wire 7 3 write_addr [6:0] $end
$var wire 128 4 wreg_sel [127:0] $end
$var wire 128 5 we_sel [127:0] $end
$var wire 1 " we $end
$var wire 1 & rst_all $end
$var wire 32 6 read_data [31:0] $end
$var wire 1 , clk $end
$scope begin FILE_REGISTER[0] $end
$upscope $end
$scope begin FILE_REGISTER[1] $end
$upscope $end
$scope begin FILE_REGISTER[2] $end
$upscope $end
$scope begin FILE_REGISTER[3] $end
$upscope $end
$scope begin FILE_REGISTER[4] $end
$upscope $end
$scope begin FILE_REGISTER[5] $end
$upscope $end
$scope begin FILE_REGISTER[6] $end
$upscope $end
$scope begin FILE_REGISTER[7] $end
$upscope $end
$scope begin FILE_REGISTER[8] $end
$upscope $end
$scope begin FILE_REGISTER[9] $end
$upscope $end
$scope begin FILE_REGISTER[10] $end
$upscope $end
$scope begin FILE_REGISTER[11] $end
$upscope $end
$scope begin FILE_REGISTER[12] $end
$upscope $end
$scope begin FILE_REGISTER[13] $end
$upscope $end
$scope begin FILE_REGISTER[14] $end
$upscope $end
$scope begin FILE_REGISTER[15] $end
$upscope $end
$scope begin FILE_REGISTER[16] $end
$upscope $end
$scope begin FILE_REGISTER[17] $end
$upscope $end
$scope begin FILE_REGISTER[18] $end
$upscope $end
$scope begin FILE_REGISTER[19] $end
$upscope $end
$scope begin FILE_REGISTER[20] $end
$upscope $end
$scope begin FILE_REGISTER[21] $end
$upscope $end
$scope begin FILE_REGISTER[22] $end
$upscope $end
$scope begin FILE_REGISTER[23] $end
$upscope $end
$scope begin FILE_REGISTER[24] $end
$upscope $end
$scope begin FILE_REGISTER[25] $end
$upscope $end
$scope begin FILE_REGISTER[26] $end
$upscope $end
$scope begin FILE_REGISTER[27] $end
$upscope $end
$scope begin FILE_REGISTER[28] $end
$upscope $end
$scope begin FILE_REGISTER[29] $end
$upscope $end
$scope begin FILE_REGISTER[30] $end
$upscope $end
$scope begin FILE_REGISTER[31] $end
$upscope $end
$scope begin FILE_REGISTER[32] $end
$upscope $end
$scope begin FILE_REGISTER[33] $end
$upscope $end
$scope begin FILE_REGISTER[34] $end
$upscope $end
$scope begin FILE_REGISTER[35] $end
$upscope $end
$scope begin FILE_REGISTER[36] $end
$upscope $end
$scope begin FILE_REGISTER[37] $end
$upscope $end
$scope begin FILE_REGISTER[38] $end
$upscope $end
$scope begin FILE_REGISTER[39] $end
$upscope $end
$scope begin FILE_REGISTER[40] $end
$upscope $end
$scope begin FILE_REGISTER[41] $end
$upscope $end
$scope begin FILE_REGISTER[42] $end
$upscope $end
$scope begin FILE_REGISTER[43] $end
$upscope $end
$scope begin FILE_REGISTER[44] $end
$upscope $end
$scope begin FILE_REGISTER[45] $end
$upscope $end
$scope begin FILE_REGISTER[46] $end
$upscope $end
$scope begin FILE_REGISTER[47] $end
$upscope $end
$scope begin FILE_REGISTER[48] $end
$upscope $end
$scope begin FILE_REGISTER[49] $end
$upscope $end
$scope begin FILE_REGISTER[50] $end
$upscope $end
$scope begin FILE_REGISTER[51] $end
$upscope $end
$scope begin FILE_REGISTER[52] $end
$upscope $end
$scope begin FILE_REGISTER[53] $end
$upscope $end
$scope begin FILE_REGISTER[54] $end
$upscope $end
$scope begin FILE_REGISTER[55] $end
$upscope $end
$scope begin FILE_REGISTER[56] $end
$upscope $end
$scope begin FILE_REGISTER[57] $end
$upscope $end
$scope begin FILE_REGISTER[58] $end
$upscope $end
$scope begin FILE_REGISTER[59] $end
$upscope $end
$scope begin FILE_REGISTER[60] $end
$upscope $end
$scope begin FILE_REGISTER[61] $end
$upscope $end
$scope begin FILE_REGISTER[62] $end
$upscope $end
$scope begin FILE_REGISTER[63] $end
$upscope $end
$scope begin FILE_REGISTER[64] $end
$upscope $end
$scope begin FILE_REGISTER[65] $end
$upscope $end
$scope begin FILE_REGISTER[66] $end
$upscope $end
$scope begin FILE_REGISTER[67] $end
$upscope $end
$scope begin FILE_REGISTER[68] $end
$upscope $end
$scope begin FILE_REGISTER[69] $end
$upscope $end
$scope begin FILE_REGISTER[70] $end
$upscope $end
$scope begin FILE_REGISTER[71] $end
$upscope $end
$scope begin FILE_REGISTER[72] $end
$upscope $end
$scope begin FILE_REGISTER[73] $end
$upscope $end
$scope begin FILE_REGISTER[74] $end
$upscope $end
$scope begin FILE_REGISTER[75] $end
$upscope $end
$scope begin FILE_REGISTER[76] $end
$upscope $end
$scope begin FILE_REGISTER[77] $end
$upscope $end
$scope begin FILE_REGISTER[78] $end
$upscope $end
$scope begin FILE_REGISTER[79] $end
$upscope $end
$scope begin FILE_REGISTER[80] $end
$upscope $end
$scope begin FILE_REGISTER[81] $end
$upscope $end
$scope begin FILE_REGISTER[82] $end
$upscope $end
$scope begin FILE_REGISTER[83] $end
$upscope $end
$scope begin FILE_REGISTER[84] $end
$upscope $end
$scope begin FILE_REGISTER[85] $end
$upscope $end
$scope begin FILE_REGISTER[86] $end
$upscope $end
$scope begin FILE_REGISTER[87] $end
$upscope $end
$scope begin FILE_REGISTER[88] $end
$upscope $end
$scope begin FILE_REGISTER[89] $end
$upscope $end
$scope begin FILE_REGISTER[90] $end
$upscope $end
$scope begin FILE_REGISTER[91] $end
$upscope $end
$scope begin FILE_REGISTER[92] $end
$upscope $end
$scope begin FILE_REGISTER[93] $end
$upscope $end
$scope begin FILE_REGISTER[94] $end
$upscope $end
$scope begin FILE_REGISTER[95] $end
$upscope $end
$scope begin FILE_REGISTER[96] $end
$upscope $end
$scope begin FILE_REGISTER[97] $end
$upscope $end
$scope begin FILE_REGISTER[98] $end
$upscope $end
$scope begin FILE_REGISTER[99] $end
$upscope $end
$scope begin FILE_REGISTER[100] $end
$upscope $end
$scope begin FILE_REGISTER[101] $end
$upscope $end
$scope begin FILE_REGISTER[102] $end
$upscope $end
$scope begin FILE_REGISTER[103] $end
$upscope $end
$scope begin FILE_REGISTER[104] $end
$upscope $end
$scope begin FILE_REGISTER[105] $end
$upscope $end
$scope begin FILE_REGISTER[106] $end
$upscope $end
$scope begin FILE_REGISTER[107] $end
$upscope $end
$scope begin FILE_REGISTER[108] $end
$upscope $end
$scope begin FILE_REGISTER[109] $end
$upscope $end
$scope begin FILE_REGISTER[110] $end
$upscope $end
$scope begin FILE_REGISTER[111] $end
$upscope $end
$scope begin FILE_REGISTER[112] $end
$upscope $end
$scope begin FILE_REGISTER[113] $end
$upscope $end
$scope begin FILE_REGISTER[114] $end
$upscope $end
$scope begin FILE_REGISTER[115] $end
$upscope $end
$scope begin FILE_REGISTER[116] $end
$upscope $end
$scope begin FILE_REGISTER[117] $end
$upscope $end
$scope begin FILE_REGISTER[118] $end
$upscope $end
$scope begin FILE_REGISTER[119] $end
$upscope $end
$scope begin FILE_REGISTER[120] $end
$upscope $end
$scope begin FILE_REGISTER[121] $end
$upscope $end
$scope begin FILE_REGISTER[122] $end
$upscope $end
$scope begin FILE_REGISTER[123] $end
$upscope $end
$scope begin FILE_REGISTER[124] $end
$upscope $end
$scope begin FILE_REGISTER[125] $end
$upscope $end
$scope begin FILE_REGISTER[126] $end
$upscope $end
$scope begin FILE_REGISTER[127] $end
$upscope $end
$scope begin READ[0] $end
$upscope $end
$scope begin READ[1] $end
$upscope $end
$scope begin READ[2] $end
$upscope $end
$scope begin READ[3] $end
$upscope $end
$scope begin READ[4] $end
$upscope $end
$scope begin READ[5] $end
$upscope $end
$scope begin READ[6] $end
$upscope $end
$scope begin READ[7] $end
$upscope $end
$scope begin READ[8] $end
$upscope $end
$scope begin READ[9] $end
$upscope $end
$scope begin READ[10] $end
$upscope $end
$scope begin READ[11] $end
$upscope $end
$scope begin READ[12] $end
$upscope $end
$scope begin READ[13] $end
$upscope $end
$scope begin READ[14] $end
$upscope $end
$scope begin READ[15] $end
$upscope $end
$scope begin READ[16] $end
$upscope $end
$scope begin READ[17] $end
$upscope $end
$scope begin READ[18] $end
$upscope $end
$scope begin READ[19] $end
$upscope $end
$scope begin READ[20] $end
$upscope $end
$scope begin READ[21] $end
$upscope $end
$scope begin READ[22] $end
$upscope $end
$scope begin READ[23] $end
$upscope $end
$scope begin READ[24] $end
$upscope $end
$scope begin READ[25] $end
$upscope $end
$scope begin READ[26] $end
$upscope $end
$scope begin READ[27] $end
$upscope $end
$scope begin READ[28] $end
$upscope $end
$scope begin READ[29] $end
$upscope $end
$scope begin READ[30] $end
$upscope $end
$scope begin READ[31] $end
$upscope $end
$scope begin WRITE[0] $end
$upscope $end
$scope begin WRITE[1] $end
$upscope $end
$scope begin WRITE[2] $end
$upscope $end
$scope begin WRITE[3] $end
$upscope $end
$scope begin WRITE[4] $end
$upscope $end
$scope begin WRITE[5] $end
$upscope $end
$scope begin WRITE[6] $end
$upscope $end
$scope begin WRITE[7] $end
$upscope $end
$scope begin WRITE[8] $end
$upscope $end
$scope begin WRITE[9] $end
$upscope $end
$scope begin WRITE[10] $end
$upscope $end
$scope begin WRITE[11] $end
$upscope $end
$scope begin WRITE[12] $end
$upscope $end
$scope begin WRITE[13] $end
$upscope $end
$scope begin WRITE[14] $end
$upscope $end
$scope begin WRITE[15] $end
$upscope $end
$scope begin WRITE[16] $end
$upscope $end
$scope begin WRITE[17] $end
$upscope $end
$scope begin WRITE[18] $end
$upscope $end
$scope begin WRITE[19] $end
$upscope $end
$scope begin WRITE[20] $end
$upscope $end
$scope begin WRITE[21] $end
$upscope $end
$scope begin WRITE[22] $end
$upscope $end
$scope begin WRITE[23] $end
$upscope $end
$scope begin WRITE[24] $end
$upscope $end
$scope begin WRITE[25] $end
$upscope $end
$scope begin WRITE[26] $end
$upscope $end
$scope begin WRITE[27] $end
$upscope $end
$scope begin WRITE[28] $end
$upscope $end
$scope begin WRITE[29] $end
$upscope $end
$scope begin WRITE[30] $end
$upscope $end
$scope begin WRITE[31] $end
$upscope $end
$scope begin WRITE[32] $end
$upscope $end
$scope begin WRITE[33] $end
$upscope $end
$scope begin WRITE[34] $end
$upscope $end
$scope begin WRITE[35] $end
$upscope $end
$scope begin WRITE[36] $end
$upscope $end
$scope begin WRITE[37] $end
$upscope $end
$scope begin WRITE[38] $end
$upscope $end
$scope begin WRITE[39] $end
$upscope $end
$scope begin WRITE[40] $end
$upscope $end
$scope begin WRITE[41] $end
$upscope $end
$scope begin WRITE[42] $end
$upscope $end
$scope begin WRITE[43] $end
$upscope $end
$scope begin WRITE[44] $end
$upscope $end
$scope begin WRITE[45] $end
$upscope $end
$scope begin WRITE[46] $end
$upscope $end
$scope begin WRITE[47] $end
$upscope $end
$scope begin WRITE[48] $end
$upscope $end
$scope begin WRITE[49] $end
$upscope $end
$scope begin WRITE[50] $end
$upscope $end
$scope begin WRITE[51] $end
$upscope $end
$scope begin WRITE[52] $end
$upscope $end
$scope begin WRITE[53] $end
$upscope $end
$scope begin WRITE[54] $end
$upscope $end
$scope begin WRITE[55] $end
$upscope $end
$scope begin WRITE[56] $end
$upscope $end
$scope begin WRITE[57] $end
$upscope $end
$scope begin WRITE[58] $end
$upscope $end
$scope begin WRITE[59] $end
$upscope $end
$scope begin WRITE[60] $end
$upscope $end
$scope begin WRITE[61] $end
$upscope $end
$scope begin WRITE[62] $end
$upscope $end
$scope begin WRITE[63] $end
$upscope $end
$scope begin WRITE[64] $end
$upscope $end
$scope begin WRITE[65] $end
$upscope $end
$scope begin WRITE[66] $end
$upscope $end
$scope begin WRITE[67] $end
$upscope $end
$scope begin WRITE[68] $end
$upscope $end
$scope begin WRITE[69] $end
$upscope $end
$scope begin WRITE[70] $end
$upscope $end
$scope begin WRITE[71] $end
$upscope $end
$scope begin WRITE[72] $end
$upscope $end
$scope begin WRITE[73] $end
$upscope $end
$scope begin WRITE[74] $end
$upscope $end
$scope begin WRITE[75] $end
$upscope $end
$scope begin WRITE[76] $end
$upscope $end
$scope begin WRITE[77] $end
$upscope $end
$scope begin WRITE[78] $end
$upscope $end
$scope begin WRITE[79] $end
$upscope $end
$scope begin WRITE[80] $end
$upscope $end
$scope begin WRITE[81] $end
$upscope $end
$scope begin WRITE[82] $end
$upscope $end
$scope begin WRITE[83] $end
$upscope $end
$scope begin WRITE[84] $end
$upscope $end
$scope begin WRITE[85] $end
$upscope $end
$scope begin WRITE[86] $end
$upscope $end
$scope begin WRITE[87] $end
$upscope $end
$scope begin WRITE[88] $end
$upscope $end
$scope begin WRITE[89] $end
$upscope $end
$scope begin WRITE[90] $end
$upscope $end
$scope begin WRITE[91] $end
$upscope $end
$scope begin WRITE[92] $end
$upscope $end
$scope begin WRITE[93] $end
$upscope $end
$scope begin WRITE[94] $end
$upscope $end
$scope begin WRITE[95] $end
$upscope $end
$scope begin WRITE[96] $end
$upscope $end
$scope begin WRITE[97] $end
$upscope $end
$scope begin WRITE[98] $end
$upscope $end
$scope begin WRITE[99] $end
$upscope $end
$scope begin WRITE[100] $end
$upscope $end
$scope begin WRITE[101] $end
$upscope $end
$scope begin WRITE[102] $end
$upscope $end
$scope begin WRITE[103] $end
$upscope $end
$scope begin WRITE[104] $end
$upscope $end
$scope begin WRITE[105] $end
$upscope $end
$scope begin WRITE[106] $end
$upscope $end
$scope begin WRITE[107] $end
$upscope $end
$scope begin WRITE[108] $end
$upscope $end
$scope begin WRITE[109] $end
$upscope $end
$scope begin WRITE[110] $end
$upscope $end
$scope begin WRITE[111] $end
$upscope $end
$scope begin WRITE[112] $end
$upscope $end
$scope begin WRITE[113] $end
$upscope $end
$scope begin WRITE[114] $end
$upscope $end
$scope begin WRITE[115] $end
$upscope $end
$scope begin WRITE[116] $end
$upscope $end
$scope begin WRITE[117] $end
$upscope $end
$scope begin WRITE[118] $end
$upscope $end
$scope begin WRITE[119] $end
$upscope $end
$scope begin WRITE[120] $end
$upscope $end
$scope begin WRITE[121] $end
$upscope $end
$scope begin WRITE[122] $end
$upscope $end
$scope begin WRITE[123] $end
$upscope $end
$scope begin WRITE[124] $end
$upscope $end
$scope begin WRITE[125] $end
$upscope $end
$scope begin WRITE[126] $end
$upscope $end
$scope begin WRITE[127] $end
$upscope $end
$scope module write_decoder $end
$var wire 128 7 selection [127:0] $end
$var wire 128 8 mux6 [127:0] $end
$var wire 128 9 mux5 [127:0] $end
$var wire 128 : mux4 [127:0] $end
$var wire 128 ; mux3 [127:0] $end
$var wire 128 < mux2 [127:0] $end
$var wire 128 = mux1 [127:0] $end
$var wire 7 > code [6:0] $end
$upscope $end
$upscope $end
$upscope $end
$upscope $end
$enddefinitions $end
#0
$dumpvars
bx >
b0xx =
b0xxxx <
b0xxxxxxxx ;
b0xxxxxxxxxxxxxxxx :
b0xxxxxxxxxxxxxxxxxxxxxxxxxxxxxxxx 9
b0xxxxxxxxxxxxxxxxxxxxxxxxxxxxxxxxxxxxxxxxxxxxxxxxxxxxxxxxxxxxxxxx 8
bx 7
bx 6
bx 5
bx 4
bx 3
bx 2
bx 1
b0x000000000000000xxxxxxxxxxxxxxx 0
bx /
bx .
x-
x,
bx +
x*
x)
bx (
x'
0&
b0x000000000000000xxxxxxxxxxxxxxx %
x$
bx #
x"
bx !
$end
#1
0$
1&
0'
0-
0)
0*
1"
#5
b10 5
b10 4
b10 7
b10 8
b10 9
b10 :
b10 ;
b10 <
b10 =
b1011010110111111010110011101100 !
b1011010110111111010110011101100 2
b1 #
b1 3
b1 >
#6
b100 5
b100 4
b100 7
b100 8
b100 9
b100 :
b100 ;
b100 <
b1 =
b1011010110111111010110011101011 !
b1011010110111111010110011101011 2
b10 #
b10 3
b10 >
#7
b1000 5
b1000 4
b1000 7
b1000 8
b1000 9
b1000 :
b1000 ;
b1000 <
b10 =
b1011010110111111010110011101010 !
b1011010110111111010110011101010 2
b11 #
b11 3
b11 >
#8
b10000 5
b10000 4
b10000 7
b10000 8
b10000 9
b10000 :
b10000 ;
b1 <
b1 =
b1011010110111111010110011101001 !
b1011010110111111010110011101001 2
b100 #
b100 3
b100 >
#9
b100000 5
b100000 4
b100000 7
b100000 8
b100000 9
b100000 :
b100000 ;
b10 <
b10 =
b1011010110111111010110011101000 !
b1011010110111111010110011101000 2
b101 #
b101 3
b101 >
#10
b1000000 5
b1000000 4
b1000000 7
b1000000 8
b1000000 9
b1000000 :
b1000000 ;
b100 <
b1 =
b1011010110111111010110011100111 !
b1011010110111111010110011100111 2
b110 #
b110 3
b110 >
#11
b10000000 5
b10000000 4
b10000000 7
b10000000 8
b10000000 9
b10000000 :
b10000000 ;
b1000 <
b10 =
b1011010110111111010110011100110 !
b1011010110111111010110011100110 2
b111 #
b111 3
b111 >
#12
b100000000 5
b100000000 4
b100000000 7
b100000000 8
b100000000 9
b100000000 :
b1 ;
b1 <
b1 =
b1011010110111111010110011100101 !
b1011010110111111010110011100101 2
b1000 #
b1000 3
b1000 >
#13
b1000000000 5
b1000000000 4
b1000000000 7
b1000000000 8
b1000000000 9
b1000000000 :
b10 ;
b10 <
b10 =
b1011010110111111010110011100100 !
b1011010110111111010110011100100 2
b1001 #
b1001 3
b1001 >
#14
b10000000000 5
b10000000000 4
b10000000000 7
b10000000000 8
b10000000000 9
b10000000000 :
b100 ;
b100 <
b1 =
b1011010110111111010110011100011 !
b1011010110111111010110011100011 2
b1010 #
b1010 3
b1010 >
#15
b100000000000 5
b100000000000 4
b100000000000 7
b100000000000 8
b100000000000 9
b100000000000 :
b1000 ;
b1000 <
b10 =
b1011010110111111010110011100010 !
b1011010110111111010110011100010 2
b1011 #
b1011 3
b1011 >
#16
b1000000000000 5
b1000000000000 4
b1000000000000 7
b1000000000000 8
b1000000000000 9
b1000000000000 :
b10000 ;
b1 <
b1 =
b1011010110111111010110011100001 !
b1011010110111111010110011100001 2
b1100 #
b1100 3
b1100 >
#17
b10000000000000 5
b10000000000000 4
b10000000000000 7
b10000000000000 8
b10000000000000 9
b10000000000000 :
b100000 ;
b10 <
b10 =
b1011010110111111010110011100000 !
b1011010110111111010110011100000 2
b1101 #
b1101 3
b1101 >
#18
b100000000000000 5
b100000000000000 4
b100000000000000 7
b100000000000000 8
b100000000000000 9
b100000000000000 :
b1000000 ;
b100 <
b1 =
b1011010110111111010110011011111 !
b1011010110111111010110011011111 2
b1110 #
b1110 3
b1110 >
#19
b1000000000000000 5
b1000000000000000 4
b1000000000000000 7
b1000000000000000 8
b1000000000000000 9
b1000000000000000 :
b10000000 ;
b1000 <
b10 =
b1011010110111111010110011011110 !
b1011010110111111010110011011110 2
b1111 #
b1111 3
b1111 >
#20
b10000000000000000 5
b10000000000000000 4
b10000000000000000 7
b10000000000000000 8
b10000000000000000 9
b1 :
b1 ;
b1 <
b1 =
b1011010110111111010110011011101 !
b1011010110111111010110011011101 2
b10000 #
b10000 3
b10000 >
#21
b100000000000000000 5
b100000000000000000 4
b100000000000000000 7
b100000000000000000 8
b100000000000000000 9
b10 :
b10 ;
b10 <
b10 =
b1011010110111111010110011011100 !
b1011010110111111010110011011100 2
b10001 #
b10001 3
b10001 >
#22
b1000000000000000000 5
b1000000000000000000 4
b1000000000000000000 7
b1000000000000000000 8
b1000000000000000000 9
b100 :
b100 ;
b100 <
b1 =
b1011010110111111010110011011011 !
b1011010110111111010110011011011 2
b10010 #
b10010 3
b10010 >
#23
b10000000000000000000 5
b10000000000000000000 4
b10000000000000000000 7
b10000000000000000000 8
b10000000000000000000 9
b1000 :
b1000 ;
b1000 <
b10 =
b1011010110111111010110011011010 !
b1011010110111111010110011011010 2
b10011 #
b10011 3
b10011 >
#24
b100000000000000000000 5
b100000000000000000000 4
b100000000000000000000 7
b100000000000000000000 8
b100000000000000000000 9
b10000 :
b10000 ;
b1 <
b1 =
b1011010110111111010110011011001 !
b1011010110111111010110011011001 2
b10100 #
b10100 3
b10100 >
#25
b1000000000000000000000 5
b1000000000000000000000 4
b1000000000000000000000 7
b1000000000000000000000 8
b1000000000000000000000 9
b100000 :
b100000 ;
b10 <
b10 =
b1011010110111111010110011011000 !
b1011010110111111010110011011000 2
b10101 #
b10101 3
b10101 >
#26
b10000000000000000000000 5
b10000000000000000000000 4
b10000000000000000000000 7
b10000000000000000000000 8
b10000000000000000000000 9
b1000000 :
b1000000 ;
b100 <
b1 =
b1011010110111111010110011010111 !
b1011010110111111010110011010111 2
b10110 #
b10110 3
b10110 >
#27
b100000000000000000000000 5
b100000000000000000000000 4
b100000000000000000000000 7
b100000000000000000000000 8
b100000000000000000000000 9
b10000000 :
b10000000 ;
b1000 <
b10 =
b1011010110111111010110011010110 !
b1011010110111111010110011010110 2
b10111 #
b10111 3
b10111 >
#28
b1000000000000000000000000 5
b1000000000000000000000000 4
b1000000000000000000000000 7
b1000000000000000000000000 8
b1000000000000000000000000 9
b100000000 :
b1 ;
b1 <
b1 =
b1011010110111111010110011010101 !
b1011010110111111010110011010101 2
b11000 #
b11000 3
b11000 >
#29
b10000000000000000000000000 5
b10000000000000000000000000 4
b10000000000000000000000000 7
b10000000000000000000000000 8
b10000000000000000000000000 9
b1000000000 :
b10 ;
b10 <
b10 =
b1011010110111111010110011010100 !
b1011010110111111010110011010100 2
b11001 #
b11001 3
b11001 >
#30
b100000000000000000000000000 5
b100000000000000000000000000 4
b100000000000000000000000000 7
b100000000000000000000000000 8
b100000000000000000000000000 9
b10000000000 :
b100 ;
b100 <
b1 =
b1011010110111111010110011010011 !
b1011010110111111010110011010011 2
b11010 #
b11010 3
b11010 >
#31
b1000000000000000000000000000 5
b1000000000000000000000000000 4
b1000000000000000000000000000 7
b1000000000000000000000000000 8
b1000000000000000000000000000 9
b100000000000 :
b1000 ;
b1000 <
b10 =
b1011010110111111010110011010010 !
b1011010110111111010110011010010 2
b11011 #
b11011 3
b11011 >
#32
b10000000000000000000000000000 5
b10000000000000000000000000000 4
b10000000000000000000000000000 7
b10000000000000000000000000000 8
b10000000000000000000000000000 9
b1000000000000 :
b10000 ;
b1 <
b1 =
b1011010110111111010110011010001 !
b1011010110111111010110011010001 2
b11100 #
b11100 3
b11100 >
#33
b100000000000000000000000000000 5
b100000000000000000000000000000 4
b100000000000000000000000000000 7
b100000000000000000000000000000 8
b100000000000000000000000000000 9
b10000000000000 :
b100000 ;
b10 <
b10 =
b1011010110111111010110011010000 !
b1011010110111111010110011010000 2
b11101 #
b11101 3
b11101 >
#34
b1000000000000000000000000000000 5
b1000000000000000000000000000000 4
b1000000000000000000000000000000 7
b1000000000000000000000000000000 8
b1000000000000000000000000000000 9
b100000000000000 :
b1000000 ;
b100 <
b1 =
b1011010110111111010110011001111 !
b1011010110111111010110011001111 2
b11110 #
b11110 3
b11110 >
#35
b10000000000000000000000000000000 5
b10000000000000000000000000000000 4
b10000000000000000000000000000000 7
b10000000000000000000000000000000 8
b10000000000000000000000000000000 9
b1000000000000000 :
b10000000 ;
b1000 <
b10 =
b1011010110111111010110011001110 !
b1011010110111111010110011001110 2
b11111 #
b11111 3
b11111 >
#36
b100000000000000000000000000000000 5
b100000000000000000000000000000000 4
b100000000000000000000000000000000 7
b100000000000000000000000000000000 8
b1 9
b1 :
b1 ;
b1 <
b1 =
b1011010110111111010110011001101 !
b1011010110111111010110011001101 2
b100000 #
b100000 3
b100000 >
#37
b1000000000000000000000000000000000 5
b1000000000000000000000000000000000 4
b1000000000000000000000000000000000 7
b1000000000000000000000000000000000 8
b10 9
b10 :
b10 ;
b10 <
b10 =
b1011010110111111010110011001100 !
b1011010110111111010110011001100 2
b100001 #
b100001 3
b100001 >
#38
b10000000000000000000000000000000000 5
b10000000000000000000000000000000000 4
b10000000000000000000000000000000000 7
b10000000000000000000000000000000000 8
b100 9
b100 :
b100 ;
b100 <
b1 =
b1011010110111111010110011001011 !
b1011010110111111010110011001011 2
b100010 #
b100010 3
b100010 >
#39
b100000000000000000000000000000000000 5
b100000000000000000000000000000000000 4
b100000000000000000000000000000000000 7
b100000000000000000000000000000000000 8
b1000 9
b1000 :
b1000 ;
b1000 <
b10 =
b1011010110111111010110011001010 !
b1011010110111111010110011001010 2
b100011 #
b100011 3
b100011 >
#40
b1000000000000000000000000000000000000 5
b1000000000000000000000000000000000000 4
b1000000000000000000000000000000000000 7
b1000000000000000000000000000000000000 8
b10000 9
b10000 :
b10000 ;
b1 <
b1 =
b1011010110111111010110011001001 !
b1011010110111111010110011001001 2
b100100 #
b100100 3
b100100 >
#41
b10000000000000000000000000000000000000 5
b10000000000000000000000000000000000000 4
b10000000000000000000000000000000000000 7
b10000000000000000000000000000000000000 8
b100000 9
b100000 :
b100000 ;
b10 <
b10 =
b1011010110111111010110011001000 !
b1011010110111111010110011001000 2
b100101 #
b100101 3
b100101 >
#42
b100000000000000000000000000000000000000 5
b100000000000000000000000000000000000000 4
b100000000000000000000000000000000000000 7
b100000000000000000000000000000000000000 8
b1000000 9
b1000000 :
b1000000 ;
b100 <
b1 =
b1011010110111111010110011000111 !
b1011010110111111010110011000111 2
b100110 #
b100110 3
b100110 >
#43
b1000000000000000000000000000000000000000 5
b1000000000000000000000000000000000000000 4
b1000000000000000000000000000000000000000 7
b1000000000000000000000000000000000000000 8
b10000000 9
b10000000 :
b10000000 ;
b1000 <
b10 =
b1011010110111111010110011000110 !
b1011010110111111010110011000110 2
b100111 #
b100111 3
b100111 >
#44
b10000000000000000000000000000000000000000 5
b10000000000000000000000000000000000000000 4
b10000000000000000000000000000000000000000 7
b10000000000000000000000000000000000000000 8
b100000000 9
b100000000 :
b1 ;
b1 <
b1 =
b1011010110111111010110011000101 !
b1011010110111111010110011000101 2
b101000 #
b101000 3
b101000 >
#45
b100000000000000000000000000000000000000000 5
b100000000000000000000000000000000000000000 4
b100000000000000000000000000000000000000000 7
b100000000000000000000000000000000000000000 8
b1000000000 9
b1000000000 :
b10 ;
b10 <
b10 =
b1011010110111111010110011000100 !
b1011010110111111010110011000100 2
b101001 #
b101001 3
b101001 >
#46
b1000000000000000000000000000000000000000000 5
b1000000000000000000000000000000000000000000 4
b1000000000000000000000000000000000000000000 7
b1000000000000000000000000000000000000000000 8
b10000000000 9
b10000000000 :
b100 ;
b100 <
b1 =
b1011010110111111010110011000011 !
b1011010110111111010110011000011 2
b101010 #
b101010 3
b101010 >
#47
b10000000000000000000000000000000000000000000 5
b10000000000000000000000000000000000000000000 4
b10000000000000000000000000000000000000000000 7
b10000000000000000000000000000000000000000000 8
b100000000000 9
b100000000000 :
b1000 ;
b1000 <
b10 =
b1011010110111111010110011000010 !
b1011010110111111010110011000010 2
b101011 #
b101011 3
b101011 >
#48
b100000000000000000000000000000000000000000000 5
b100000000000000000000000000000000000000000000 4
b100000000000000000000000000000000000000000000 7
b100000000000000000000000000000000000000000000 8
b1000000000000 9
b1000000000000 :
b10000 ;
b1 <
b1 =
b1011010110111111010110011000001 !
b1011010110111111010110011000001 2
b101100 #
b101100 3
b101100 >
#49
b1000000000000000000000000000000000000000000000 5
b1000000000000000000000000000000000000000000000 4
b1000000000000000000000000000000000000000000000 7
b1000000000000000000000000000000000000000000000 8
b10000000000000 9
b10000000000000 :
b100000 ;
b10 <
b10 =
b1011010110111111010110011000000 !
b1011010110111111010110011000000 2
b101101 #
b101101 3
b101101 >
#50
b10000000000000000000000000000000000000000000000 5
b10000000000000000000000000000000000000000000000 4
b10000000000000000000000000000000000000000000000 7
b10000000000000000000000000000000000000000000000 8
b100000000000000 9
b100000000000000 :
b1000000 ;
b100 <
b1 =
b1011010110111111010110010111111 !
b1011010110111111010110010111111 2
b101110 #
b101110 3
b101110 >
#51
b100000000000000000000000000000000000000000000000 5
b100000000000000000000000000000000000000000000000 4
b100000000000000000000000000000000000000000000000 7
b100000000000000000000000000000000000000000000000 8
b1000000000000000 9
b1000000000000000 :
b10000000 ;
b1000 <
b10 =
b1011010110111111010110010111110 !
b1011010110111111010110010111110 2
b101111 #
b101111 3
b101111 >
#52
b1000000000000000000000000000000000000000000000000 5
b1000000000000000000000000000000000000000000000000 4
b1000000000000000000000000000000000000000000000000 7
b1000000000000000000000000000000000000000000000000 8
b10000000000000000 9
b1 :
b1 ;
b1 <
b1 =
b1011010110111111010110010111101 !
b1011010110111111010110010111101 2
b110000 #
b110000 3
b110000 >
#53
b10000000000000000000000000000000000000000000000000 5
b10000000000000000000000000000000000000000000000000 4
b10000000000000000000000000000000000000000000000000 7
b10000000000000000000000000000000000000000000000000 8
b100000000000000000 9
b10 :
b10 ;
b10 <
b10 =
b1011010110111111010110010111100 !
b1011010110111111010110010111100 2
b110001 #
b110001 3
b110001 >
#54
b100000000000000000000000000000000000000000000000000 5
b100000000000000000000000000000000000000000000000000 4
b100000000000000000000000000000000000000000000000000 7
b100000000000000000000000000000000000000000000000000 8
b1000000000000000000 9
b100 :
b100 ;
b100 <
b1 =
b1011010110111111010110010111011 !
b1011010110111111010110010111011 2
b110010 #
b110010 3
b110010 >
